run/cpu.VCD
$date
	Sun Sep  8 23:59:01 2024
$end
$version
	Icarus Verilog
$end
$timescale
	1s
$end
$scope module testbench $end
$var wire 32 ! X_1 [31:0] $end
$var wire 32 " X_10 [31:0] $end
$var wire 32 # X_11 [31:0] $end
$var wire 32 $ X_12 [31:0] $end
$var wire 32 % X_13 [31:0] $end
$var wire 32 & X_14 [31:0] $end
$var wire 32 ' X_15 [31:0] $end
$var wire 32 ( X_16 [31:0] $end
$var wire 32 ) X_17 [31:0] $end
$var wire 32 * X_18 [31:0] $end
$var wire 32 + X_19 [31:0] $end
$var wire 32 , X_20 [31:0] $end
$var wire 32 - X_21 [31:0] $end
$var wire 32 . X_22 [31:0] $end
$var wire 32 / X_4 [31:0] $end
$var wire 32 0 X_5 [31:0] $end
$var wire 32 1 X_6 [31:0] $end
$var wire 32 2 X_7 [31:0] $end
$var wire 32 3 X_8 [31:0] $end
$var wire 32 4 X_9 [31:0] $end
$var wire 32 5 instr [31:0] $end
$var wire 32 6 mem_34 [31:0] $end
$var wire 32 7 mem_35 [31:0] $end
$var wire 32 8 reg_file_2 [31:0] $end
$var wire 4 9 byte_mark [3:0] $end
$var wire 1 : WR $end
$var wire 1 ; RD $end
$var wire 32 < D_out [31:0] $end
$var wire 32 = D_in [31:0] $end
$var wire 1 > DMEM_rst $end
$var wire 32 ? A_IMEM [31:0] $end
$var wire 32 @ A_DMEM [31:0] $end
$var reg 32 A Instr_in [31:0] $end
$var reg 1 B clk $end
$var reg 1 C rst_n $end
$var integer 32 D i [31:0] $end
$var integer 32 E j [31:0] $end
$var integer 32 F k [31:0] $end
$scope module ram $end
$var wire 1 B clk $end
$var wire 1 C rst_n $end
$var wire 32 G data_in [31:0] $end
$var wire 4 H byte_en [3:0] $end
$var wire 32 I addr [31:0] $end
$var wire 1 : WR $end
$var wire 1 ; RD $end
$var reg 32 J data_out [31:0] $end
$upscope $end
$scope module top $end
$var wire 32 K D_in [31:0] $end
$var wire 32 L Instr_in [31:0] $end
$var wire 1 ; RD $end
$var wire 1 : WR $end
$var wire 32 M boot_add [31:0] $end
$var wire 4 N byte_mark [3:0] $end
$var wire 1 B clk $end
$var wire 1 O pc_sel $end
$var wire 1 C rst_n $end
$var wire 1 P stall $end
$var wire 1 Q hazard $end
$var wire 1 R forward_dmem $end
$var wire 2 S forward_B [1:0] $end
$var wire 2 T forward_A [1:0] $end
$var wire 1 U WB_regwrite $end
$var wire 5 V WB_rd_add [4:0] $end
$var wire 32 W WB_data_write_reg [31:0] $end
$var wire 2 X MEM_sel_to_reg [1:0] $end
$var wire 1 Y MEM_regwrite $end
$var wire 5 Z MEM_rd_add [4:0] $end
$var wire 32 [ MEM_pc [31:0] $end
$var wire 32 \ MEM_imm [31:0] $end
$var wire 32 ] MEM_alu_result [31:0] $end
$var wire 1 ^ MEM_WR_mem $end
$var wire 1 _ MEM_RD_mem $end
$var wire 32 ` IF_pc [31:0] $end
$var wire 32 a IF_instr [31:0] $end
$var wire 1 b IF_ID_flush $end
$var wire 2 c ID_sel_to_reg [1:0] $end
$var wire 32 d ID_rs2_data [31:0] $end
$var wire 5 e ID_rs2_add [4:0] $end
$var wire 32 f ID_rs1_data [31:0] $end
$var wire 5 g ID_rs1_add [4:0] $end
$var wire 1 h ID_regwrite $end
$var wire 5 i ID_rd_add [4:0] $end
$var wire 1 j ID_pc_sel $end
$var wire 32 k ID_pc [31:0] $end
$var wire 4 l ID_mem_op [3:0] $end
$var wire 1 m ID_jump $end
$var wire 32 n ID_imm [31:0] $end
$var wire 1 o ID_branch $end
$var wire 2 p ID_alu_sel2 [1:0] $end
$var wire 2 q ID_alu_sel1 [1:0] $end
$var wire 4 r ID_alu_op [3:0] $end
$var wire 1 s ID_WR $end
$var wire 1 t ID_RD $end
$var wire 1 u EX_zero $end
$var wire 2 v EX_sel_to_reg [1:0] $end
$var wire 32 w EX_rs2_data [31:0] $end
$var wire 5 x EX_rs2_add [4:0] $end
$var wire 5 y EX_rs1_add [4:0] $end
$var wire 1 z EX_regwrite $end
$var wire 5 { EX_rd_add [4:0] $end
$var wire 32 | EX_pc_dest [31:0] $end
$var wire 32 } EX_pc [31:0] $end
$var wire 4 ~ EX_mem_op [3:0] $end
$var wire 1 !" EX_jump $end
$var wire 32 "" EX_imm [31:0] $end
$var wire 1 #" EX_flush $end
$var wire 1 $" EX_branch $end
$var wire 32 %" EX_alu_result [31:0] $end
$var wire 1 &" EX_WR $end
$var wire 1 '" EX_RD $end
$var wire 32 (" D_out [31:0] $end
$var wire 1 > DMEM_rst $end
$var wire 32 )" DMEM_data_o [31:0] $end
$var wire 4 *" DMEM_byte_mark [3:0] $end
$var wire 32 +" A_IMEM [31:0] $end
$var wire 32 ," A_DMEM [31:0] $end
$scope module control_hazard $end
$var wire 1 b IF_ID_flush_o $end
$var wire 1 B clk $end
$var wire 1 C rst_n $end
$var wire 1 u zero $end
$var wire 1 Y MEM_regwrite_i $end
$var wire 5 -" MEM_rd_add_i [4:0] $end
$var wire 32 ." IF_instr_i [31:0] $end
$var wire 5 /" ID_rs2_add_i [4:0] $end
$var wire 5 0" ID_rs1_add_i [4:0] $end
$var wire 5 1" ID_rd_add_i [4:0] $end
$var wire 1 m ID_jump $end
$var wire 1 t ID_RD_mem_i $end
$var wire 5 2" EX_rs2_add_i [4:0] $end
$var wire 5 3" EX_rs1_add_i [4:0] $end
$var wire 1 z EX_regwrite_i $end
$var wire 5 4" EX_rd_add_i [4:0] $end
$var reg 1 #" EX_flush_o $end
$var reg 1 5" IF_ID_flush1 $end
$var reg 1 6" IF_ID_flush2 $end
$var reg 2 7" forward_A_o [1:0] $end
$var reg 2 8" forward_B_o [1:0] $end
$var reg 1 R forward_dmem $end
$var reg 1 Q hazard $end
$var reg 7 9" opcode [6:0] $end
$var reg 1 P stall_o $end
$upscope $end
$scope module ex_stage $end
$var wire 32 :" EX_data_i [31:0] $end
$var wire 1 B clk $end
$var wire 1 #" flush $end
$var wire 2 ;" forwardA [1:0] $end
$var wire 2 <" forwardB [1:0] $end
$var wire 1 Q hazard $end
$var wire 1 C rst_n $end
$var wire 1 =" zero $end
$var wire 2 >" sel_to_alu_B [1:0] $end
$var wire 2 ?" sel_to_alu_A [1:0] $end
$var wire 32 @" alu_result [31:0] $end
$var wire 32 A" WB_data_i [31:0] $end
$var wire 2 B" EX_sel_to_reg_i [1:0] $end
$var wire 2 C" EX_sel_alu2_i [1:0] $end
$var wire 2 D" EX_sel_alu1_i [1:0] $end
$var wire 32 E" EX_rs2_data_i [31:0] $end
$var wire 5 F" EX_rs2_add_i [4:0] $end
$var wire 32 G" EX_rs1_data_i [31:0] $end
$var wire 5 H" EX_rs1_add_i [4:0] $end
$var wire 1 h EX_regwrite_i $end
$var wire 5 I" EX_rd_add_i [4:0] $end
$var wire 32 J" EX_pc_i [31:0] $end
$var wire 32 K" EX_pc_dest [31:0] $end
$var wire 4 L" EX_mem_op_i [3:0] $end
$var wire 1 m EX_jump_i $end
$var wire 32 M" EX_imm_i [31:0] $end
$var wire 1 o EX_branch_i $end
$var wire 4 N" EX_alu_op_i [3:0] $end
$var wire 1 s EX_WR_mem_i $end
$var wire 1 t EX_RD_mem_i $end
$var reg 1 '" EX_RD_mem_o $end
$var reg 1 &" EX_WR_mem_o $end
$var reg 32 O" EX_alu_result_o [31:0] $end
$var reg 1 $" EX_branch_o $end
$var reg 32 P" EX_imm_o [31:0] $end
$var reg 1 !" EX_jump_o $end
$var reg 4 Q" EX_mem_op_o [3:0] $end
$var reg 32 R" EX_pc_o [31:0] $end
$var reg 5 S" EX_rd_add_o [4:0] $end
$var reg 1 z EX_regwrite_o $end
$var reg 5 T" EX_rs1_add_o [4:0] $end
$var reg 5 U" EX_rs2_add_o [4:0] $end
$var reg 32 V" EX_rs2_data_o [31:0] $end
$var reg 2 W" EX_sel_to_reg_o [1:0] $end
$var reg 1 u EX_zero_o $end
$var reg 32 X" op_a_alu [31:0] $end
$var reg 32 Y" op_b_alu [31:0] $end
$scope module alu $end
$var wire 32 Z" alu_op1_i [31:0] $end
$var wire 32 [" alu_op2_i [31:0] $end
$var wire 4 \" alu_ctrl_i [3:0] $end
$var reg 32 ]" alu_result_o [31:0] $end
$var reg 1 =" zero_o $end
$upscope $end
$upscope $end
$scope module id_stage $end
$var wire 32 ^" EX_ALU_result_i [31:0] $end
$var wire 1 $" EX_branch_i $end
$var wire 1 !" EX_jump_i $end
$var wire 5 _" EX_rd_add_i [4:0] $end
$var wire 1 u EX_zero_i $end
$var wire 1 B clk $end
$var wire 1 b flush $end
$var wire 32 `" match_1 [31:0] $end
$var wire 32 a" match_2 [31:0] $end
$var wire 1 C rst_n $end
$var wire 1 P stall $end
$var wire 2 b" sel_to_reg [1:0] $end
$var wire 5 c" rs2_add [4:0] $end
$var wire 5 d" rs1_add [4:0] $end
$var wire 1 e" reg_write $end
$var wire 32 f" read_data_2 [31:0] $end
$var wire 32 g" read_data_1 [31:0] $end
$var wire 5 h" rd_add [4:0] $end
$var wire 1 i" pc_sel $end
$var wire 1 j" mem_wr_en $end
$var wire 1 k" mem_rd_en $end
$var wire 4 l" mem_op [3:0] $end
$var wire 1 m" jump $end
$var wire 32 n" imm [31:0] $end
$var wire 1 o" branch $end
$var wire 2 p" alu_sel2 [1:0] $end
$var wire 2 q" alu_sel1 [1:0] $end
$var wire 4 r" alu_op [3:0] $end
$var wire 1 U WB_regwrite_i $end
$var wire 5 s" WB_rd_add_i [4:0] $end
$var wire 32 t" WB_data_i [31:0] $end
$var wire 32 u" ID_pc_i [31:0] $end
$var wire 32 v" ID_instr_i [31:0] $end
$var reg 1 t ID_RD_en_o $end
$var reg 1 s ID_WR_en_o $end
$var reg 4 w" ID_alu_op_o [3:0] $end
$var reg 2 x" ID_alu_sel1_o [1:0] $end
$var reg 2 y" ID_alu_sel2_o [1:0] $end
$var reg 1 o ID_branch_o $end
$var reg 32 z" ID_imm_o [31:0] $end
$var reg 1 m ID_jump_o $end
$var reg 4 {" ID_mem_op_o [3:0] $end
$var reg 32 |" ID_pc_o [31:0] $end
$var reg 1 j ID_pc_sel_o $end
$var reg 5 }" ID_rd_add_o [4:0] $end
$var reg 1 h ID_regwrite_o $end
$var reg 5 ~" ID_rs1_add_o [4:0] $end
$var reg 32 !# ID_rs1_data_o [31:0] $end
$var reg 5 "# ID_rs2_add_o [4:0] $end
$var reg 32 ## ID_rs2_data_o [31:0] $end
$var reg 2 $# ID_sel_to_reg_o [1:0] $end
$var reg 32 %# rs1_data_temp [31:0] $end
$var reg 32 &# rs2_data_temp [31:0] $end
$scope module decode $end
$var wire 1 $" EX_branch_i $end
$var wire 1 !" EX_jump_i $end
$var wire 1 u EX_zero_i $end
$var wire 32 '# instr_i [31:0] $end
$var reg 3 (# FUNCT3 [2:0] $end
$var reg 32 )# IMM_B [31:0] $end
$var reg 32 *# IMM_I [31:0] $end
$var reg 32 +# IMM_J [31:0] $end
$var reg 32 ,# IMM_S [31:0] $end
$var reg 32 -# IMM_U [31:0] $end
$var reg 4 .# alu_op_o [3:0] $end
$var reg 2 /# alu_sel1_o [1:0] $end
$var reg 2 0# alu_sel2_o [1:0] $end
$var reg 1 o" branch_o $end
$var reg 4 1# funct7 [3:0] $end
$var reg 32 2# imm_o [31:0] $end
$var reg 1 m" jump_o $end
$var reg 4 3# mem_op_o [3:0] $end
$var reg 1 k" mem_rd_en_o $end
$var reg 1 j" mem_wr_en_o $end
$var reg 7 4# opcode [6:0] $end
$var reg 1 i" pc_sel_o $end
$var reg 5 5# rd_add_o [4:0] $end
$var reg 1 e" reg_write_o $end
$var reg 5 6# rs1_add_o [4:0] $end
$var reg 5 7# rs2_add_o [4:0] $end
$var reg 2 8# sel_to_reg_o [1:0] $end
$upscope $end
$scope module reg_file $end
$var wire 5 9# address_1 [4:0] $end
$var wire 5 :# address_2 [4:0] $end
$var wire 1 B clk $end
$var wire 1 C rst_n $end
$var wire 1 ;# unused_reset $end
$var wire 1 U reg_write $end
$var wire 32 <# read_data_2 [31:0] $end
$var wire 32 =# read_data_1 [31:0] $end
$var wire 32 ># data_write [31:0] $end
$var wire 5 ?# address_3 [4:0] $end
$var integer 32 @# i [31:0] $end
$upscope $end
$upscope $end
$scope module if_stage $end
$var wire 32 A# IF_instr_i [31:0] $end
$var wire 32 B# IMEM_data_i [31:0] $end
$var wire 32 C# boot_add [31:0] $end
$var wire 1 B clk $end
$var wire 1 b flush $end
$var wire 32 D# pc_dest [31:0] $end
$var wire 1 O pc_sel $end
$var wire 1 C rst_n $end
$var wire 1 P stall $end
$var reg 32 E# IF_instr_o [31:0] $end
$var reg 32 F# IF_pc_o [31:0] $end
$var reg 32 G# IMEM_add_o [31:0] $end
$var reg 32 H# pc_next [31:0] $end
$upscope $end
$scope module mem_stage $end
$var wire 32 I# DMEM_data_i [31:0] $end
$var wire 1 '" MEM_RD_mem_i $end
$var wire 1 &" MEM_WR_mem_i $end
$var wire 32 J# MEM_alu_result_i [31:0] $end
$var wire 32 K# MEM_imm_i [31:0] $end
$var wire 4 L# MEM_mem_op_i [3:0] $end
$var wire 32 M# MEM_pc_i [31:0] $end
$var wire 5 N# MEM_rd_add_i [4:0] $end
$var wire 1 z MEM_regwrite_i $end
$var wire 32 O# MEM_rs2_data_i [31:0] $end
$var wire 2 P# MEM_sel_to_reg_i [1:0] $end
$var wire 1 B clk $end
$var wire 1 R forward $end
$var wire 1 C rst_n $end
$var wire 32 Q# WB_data_i [31:0] $end
$var reg 32 R# DMEM_add_o [31:0] $end
$var reg 4 S# DMEM_byte_mark_o [3:0] $end
$var reg 32 T# DMEM_data_write_o [31:0] $end
$var reg 1 > DMEM_rst_o $end
$var reg 1 _ MEM_RD_mem_o $end
$var reg 1 ^ MEM_WR_mem_o $end
$var reg 32 U# MEM_alu_result_o [31:0] $end
$var reg 32 V# MEM_data_o [31:0] $end
$var reg 32 W# MEM_imm_o [31:0] $end
$var reg 32 X# MEM_pc_o [31:0] $end
$var reg 5 Y# MEM_rd_add_o [4:0] $end
$var reg 1 Y MEM_regwrite_o $end
$var reg 2 Z# MEM_sel_to_reg_o [1:0] $end
$var reg 2 [# byte_addr [1:0] $end
$var reg 4 \# byte_mark [3:0] $end
$var reg 32 ]# data_write [31:0] $end
$var reg 4 ^# mem_op [3:0] $end
$upscope $end
$scope module wb_stage $end
$var wire 32 _# DMEM_data_i [31:0] $end
$var wire 32 `# WB_alu_result_i [31:0] $end
$var wire 32 a# WB_imm_i [31:0] $end
$var wire 32 b# WB_pc_i [31:0] $end
$var wire 5 c# WB_rd_add_i [4:0] $end
$var wire 1 Y WB_regwrite_i $end
$var wire 2 d# WB_sel_to_reg_i [1:0] $end
$var wire 1 B clk $end
$var wire 1 C rst_n $end
$var reg 31 e# WB_alu_result [31:1] $end
$var reg 32 f# WB_data_write_reg_o [31:0] $end
$var reg 32 g# WB_imm [31:0] $end
$var reg 5 h# WB_rd_add_o [4:0] $end
$var reg 1 U WB_regwrite_o $end
$var reg 2 i# WB_sel_to_reg [1:0] $end
$var reg 32 j# pc [31:0] $end
$upscope $end
$upscope $end
$upscope $end
$enddefinitions $end
#0
$dumpvars
bx j#
bx i#
bx h#
bx g#
bx f#
bx e#
bx d#
bx c#
bx b#
bx a#
bx `#
bx _#
bx ^#
bx ]#
bx \#
bx [#
bx Z#
bx Y#
bx X#
bx W#
bx V#
bx U#
bx T#
bx S#
bx R#
bx Q#
bx P#
bx O#
bx N#
bx M#
bx L#
bx K#
bx J#
bx I#
bx H#
bx G#
bx F#
bx E#
bx D#
b0 C#
bx B#
bx A#
b11111 @#
bx ?#
bx >#
bx =#
bx <#
x;#
bx :#
bx 9#
bx 8#
bx 7#
bx 6#
bx 5#
bx 4#
bx 3#
bx 2#
bx 1#
bx 0#
bx /#
bx .#
bx -#
bx ,#
bx +#
bx *#
bx )#
bx (#
bx '#
bx &#
bx %#
bx $#
bx ##
bx "#
bx !#
bx ~"
bx }"
bx |"
bx {"
bx z"
bx y"
bx x"
bx w"
bx v"
bx u"
bx t"
bx s"
bx r"
bx q"
bx p"
xo"
bx n"
xm"
bx l"
xk"
xj"
xi"
bx h"
bx g"
bx f"
xe"
bx d"
bx c"
bx b"
b0x a"
b0x `"
bx _"
bx ^"
bx ]"
bx \"
bx ["
bx Z"
bx Y"
bx X"
bx W"
bx V"
bx U"
bx T"
bx S"
bx R"
bx Q"
bx P"
bx O"
bx N"
bx M"
bx L"
bx K"
bx J"
bx I"
bx H"
bx G"
bx F"
bx E"
bx D"
bx C"
bx B"
bx A"
bx @"
bx ?"
bx >"
x="
bx <"
bx ;"
bx :"
bx 9"
bx 8"
bx 7"
x6"
x5"
bx 4"
bx 3"
bx 2"
bx 1"
bx 0"
bx /"
bx ."
bx -"
bx ,"
bx +"
bx *"
bx )"
bx ("
x'"
x&"
bx %"
x$"
x#"
bx ""
x!"
bx ~
bx }
bx |
bx {
xz
bx y
bx x
bx w
bx v
xu
xt
xs
bx r
bx q
bx p
xo
bx n
xm
bx l
bx k
xj
bx i
xh
bx g
bx f
bx e
bx d
bx c
xb
bx a
bx `
x_
x^
bx ]
bx \
bx [
bx Z
xY
bx X
bx W
bx V
xU
bx T
bx S
xR
xQ
xP
xO
bx N
b0 M
bx L
bx K
bx J
bx I
bx H
bx G
bx F
bx E
bx D
xC
xB
bx A
bx @
bx ?
x>
bx =
bx <
x;
x:
bx 9
b0 8
bx 7
bx 6
bx 5
b0 4
b0 3
b0 2
b0 1
b0 0
b0 /
b0 .
b0 -
b0 ,
b0 +
b0 *
b0 )
b0 (
b0 '
b0 &
b0 %
b0 $
b0 #
b0 "
b0 !
$end
#5
b1110 7
b1100 6
b100000000 F
b100 .
b100 -
b100 ,
b100 +
b100 *
b100 )
b100 (
b100 '
b100 &
b100 %
b100 $
b100 #
b100 "
b100 4
b100 3
b100 2
b100 1
b100 0
b100 /
b100 8
b100 !
b100000 D
#10
b100000 E
#20
0b
b100 d
b100 E"
b100 ##
b100 f
b100 G"
b100 !#
b100 f"
b100 <#
b100 g"
b100 =#
b0 a"
b0 `"
0="
b1000 @"
b1000 ]"
0O
0#"
05"
b100 H#
b100 Y"
b100 ["
b100 X"
b100 Z"
b0 <
b0 G
b0 ("
b0 T#
b0 ?"
b0 >"
0P
b0 9"
b0 +#
b0 -#
b0 )#
b0 ,#
b0 *#
b0 1#
b0 (#
b0 4#
0e"
b10 l"
b10 3#
0i"
0o"
0m"
b0 b"
b0 8#
0j"
0k"
b0 r"
b0 .#
b0 p"
b0 0#
b0 q"
b0 /#
b0 n"
b0 2#
b0 c"
b0 7#
b0 :#
b0 d"
b0 6#
b0 9#
b0 h"
b0 5#
b0 9
b0 H
b0 N
b0 *"
b0 S#
0R
b0 S
b0 8"
b0 <"
b0 T
b0 7"
b0 ;"
b0 ]#
b100 W
b100 A"
b100 t"
b100 >#
b100 Q#
b100 f#
b0 )"
b0 V#
b0 _#
b0 `
b0 u"
b0 F#
b0 ?
b0 +"
b0 G#
b0 n
b0 M"
b0 z"
b0 e
b0 /"
b0 F"
b0 "#
b0 g
b0 0"
b0 H"
b0 ~"
b0 i
b0 1"
b0 I"
b0 }"
0j
b0 l
b0 L"
b0 {"
0m
b0 c
b0 B"
b0 $#
0h
0t
0s
0o
b0 r
b0 N"
b0 \"
b0 w"
b0 p
b0 C"
b0 y"
b0 q
b0 D"
b0 x"
b0 k
b0 J"
b0 |"
0!"
0$"
b0 w
b0 V"
b0 O#
0u
b0 |
b0 K"
b0 D#
b0 ""
b0 P"
b0 K#
b0 %"
b0 :"
b0 O"
b0 ^"
b0 J#
b0 }
b0 R"
b0 M#
b0 y
b0 3"
b0 T"
b0 x
b0 2"
b0 U"
0z
b0 {
b0 4"
b0 S"
b0 _"
b0 N#
b0 v
b0 W"
b0 P#
b0 ~
b0 Q"
b0 L#
0&"
0'"
b0 [#
b0 ^#
0Q
06"
b0 5
b0 a
b0 ."
b0 v"
b0 '#
b0 E#
b0 &#
b0 %#
b0 \#
b0 \
b0 W#
b0 a#
b0 [
b0 X#
b0 b#
0:
0^
0;
0_
b0 Z
b0 -"
b0 Y#
b0 c#
0Y
b0 ]
b0 U#
b0 `#
b0 X
b0 Z#
b0 d#
b0 @
b0 I
b0 ,"
b0 R#
b0 g#
b0 e#
b0 i#
b0 j#
0U
b0 V
b0 s"
b0 ?#
b0 h#
b0 =
b0 J
b0 K
b0 I#
1>
1B
0;#
0C
b10000011000000100110011 A
b10000011000000100110011 L
b10000011000000100110011 A#
b10000011000000100110011 B#
#25
0>
0B
1;#
1C
#30
b10 p"
b10 0#
b11 q"
b11 /#
b1 b"
b1 8#
1e"
b100 ]#
b1000 H#
b1000010100100010001000100011 A
b1000010100100010001000100011 L
b1000010100100010001000100011 A#
b1000010100100010001000100011 B#
b11000000000000100 +#
b10000011000000000000000 -#
b10 )#
b10 ,#
b100 *#
b110011 4#
b110011 9"
b100 c"
b100 7#
b100 :#
b11 d"
b11 6#
b11 9#
b10 h"
b10 5#
b100 &#
b100 %#
b100 w
b100 V"
b100 O#
b1000 %"
b1000 :"
b1000 O"
b1000 ^"
b1000 J#
b10 l
b10 L"
b10 {"
b100 ?
b100 +"
b100 G#
b10000011000000100110011 5
b10000011000000100110011 a
b10000011000000100110011 ."
b10000011000000100110011 v"
b10000011000000100110011 '#
b10000011000000100110011 E#
1B
#35
0B
#40
b101 l"
b101 3#
1j"
b10000100 n"
b10000100 2#
b1100 H#
b10 >"
b11 ?"
b100011 9"
b100010100010000100 +#
b1000010100100010000000000000 -#
b10000100 )#
b10000100 ,#
b10000101 *#
b10 (#
b100011 4#
0e"
b0 b"
b0 8#
b11 p"
b11 0#
b11 q"
b11 /#
b101 c"
b101 7#
b101 :#
b100 d"
b100 6#
b100 9#
b100 h"
b100 5#
b1000 ]
b1000 U#
b1000 `#
b1000 @
b1000 I
b1000 ,"
b1000 R#
b100 `
b100 u"
b100 F#
b1000 ?
b1000 +"
b1000 G#
b100 e
b100 /"
b100 F"
b100 "#
b11 g
b11 0"
b11 H"
b11 ~"
b10 i
b10 1"
b10 I"
b10 }"
b1 c
b1 B"
b1 $#
1h
b10 p
b10 C"
b10 y"
b11 q
b11 D"
b11 x"
b10 ~
b10 Q"
b10 L#
b1000010100100010001000100011 5
b1000010100100010001000100011 a
b1000010100100010001000100011 ."
b1000010100100010001000100011 v"
b1000010100100010001000100011 '#
b1000010100100010001000100011 E#
1B
#45
0B
#50
b10001000 @"
b10001000 ]"
b10000100 Y"
b10000100 ["
b11 >"
b10000 H#
b11100110000001010110011 A
b11100110000001010110011 L
b11100110000001010110011 A#
b11100110000001010110011 B#
b1000 e#
b10 ^#
b11 y
b11 3"
b11 T"
b100 x
b100 2"
b100 U"
b10 {
b10 4"
b10 S"
b10 _"
b10 N#
1z
b1 v
b1 W"
b1 P#
b101 l
b101 L"
b101 {"
b0 c
b0 B"
b0 $#
0h
1s
b11 p
b11 C"
b11 y"
b100 k
b100 J"
b100 |"
b10000100 n
b10000100 M"
b10000100 z"
b101 e
b101 /"
b101 F"
b101 "#
b100 g
b100 0"
b100 H"
b100 ~"
b100 i
b100 1"
b100 I"
b100 }"
b1000 `
b1000 u"
b1000 F#
b1100 ?
b1100 +"
b1100 G#
1B
#55
0B
#60
b1111 9
b1111 H
b1111 N
b1111 *"
b1111 S#
b1 b"
b1 8#
1e"
b10000000000000000011101111 A
b10000000000000000011101111 L
b10000000000000000011101111 A#
b10000000000000000011101111 B#
b10100 H#
b1111 \#
b100 <
b100 G
b100 ("
b100 T#
b110000100000000110 +#
b11100110000000000000000 -#
b100000000100 )#
b101 ,#
b111 *#
b0 (#
b110011 4#
b110011 9"
b10 l"
b10 3#
0j"
b10 p"
b10 0#
b11 q"
b11 /#
b0 n"
b0 2#
b111 c"
b111 7#
b111 :#
b110 d"
b110 6#
b110 9#
b101 h"
b101 5#
b10 Z
b10 -"
b10 Y#
b10 c#
1Y
b1 X
b1 Z#
b1 d#
b1100 `
b1100 u"
b1100 F#
b10000 ?
b10000 +"
b10000 G#
b1000 k
b1000 J"
b1000 |"
b10000100 ""
b10000100 P"
b10000100 K#
b10001000 %"
b10001000 :"
b10001000 O"
b10001000 ^"
b10001000 J#
b10001000 |
b10001000 K"
b10001000 D#
b100 }
b100 R"
b100 M#
b100 y
b100 3"
b100 T"
b101 x
b101 2"
b101 U"
b100 {
b100 4"
b100 S"
b100 _"
b100 N#
0z
b0 v
b0 W"
b0 P#
b101 ~
b101 Q"
b101 L#
1&"
b11100110000001010110011 5
b11100110000001010110011 a
b11100110000001010110011 ."
b11100110000001010110011 v"
b11100110000001010110011 '#
b11100110000001010110011 E#
1B
#65
0B
#70
b1000 @"
b1000 ]"
b100000 n"
b100000 2#
1m"
b1000 W
b1000 A"
b1000 t"
b1000 >#
b1000 Q#
b1000 f#
b10 >"
b100 Y"
b100 ["
b11000 H#
b1000010100100010001000100011 A
b1000010100100010001000100011 L
b1000010100100010001000100011 A#
b1000010100100010001000100011 B#
b1101111 9"
b100000 +#
b10000000000000000000000000 -#
b100000100000 )#
b100001 ,#
b100000 *#
b1101111 4#
1e"
b0 b"
b0 8#
b11 p"
b11 0#
b10 q"
b10 /#
b0 c"
b0 7#
b0 :#
b0 d"
b0 6#
b0 9#
b1 h"
b1 5#
b1 i#
1U
b10 V
b10 s"
b10 ?#
b10 h#
b10001000 @
b10001000 I
b10001000 ,"
b10001000 R#
b10000100 \
b10000100 W#
b10000100 a#
b100 [
b100 X#
b100 b#
1:
1^
b100 Z
b100 -"
b100 Y#
b100 c#
0Y
b10001000 ]
b10001000 U#
b10001000 `#
b0 X
b0 Z#
b0 d#
b101 ^#
b10001100 |
b10001100 K"
b10001100 D#
b1000 }
b1000 R"
b1000 M#
b10 l
b10 L"
b10 {"
b1 c
b1 B"
b1 $#
1h
0s
b10 p
b10 C"
b10 y"
b1100 k
b1100 J"
b1100 |"
b0 n
b0 M"
b0 z"
b111 e
b111 /"
b111 F"
b111 "#
b110 g
b110 0"
b110 H"
b110 ~"
b101 i
b101 1"
b101 I"
b101 }"
b10000 `
b10000 u"
b10000 F#
b10100 ?
b10100 +"
b10100 G#
b10000000000000000011101111 5
b10000000000000000011101111 a
b10000000000000000011101111 ."
b10000000000000000011101111 v"
b10000000000000000011101111 '#
b10000000000000000011101111 E#
1B
#75
0B
#80
b110000 @"
b110000 ]"
1b
b100000 Y"
b100000 ["
b10000 X"
b10000 Z"
b10 l"
b10 3#
0j"
15"
b11 >"
b10 ?"
b11100 H#
b0 \#
b0 <
b0 G
b0 ("
b0 T#
b0 9
b0 H
b0 N
b0 *"
b0 S#
b0 +#
b0 -#
b0 )#
b0 ,#
b0 *#
b0 (#
b0 4#
b0 9"
0e"
0m"
b0 p"
b0 0#
b0 q"
b0 /#
b0 n"
b0 2#
b0 c"
b0 7#
b0 :#
b0 d"
b0 6#
b0 9#
b0 h"
b0 5#
b1000 [
b1000 X#
b1000 b#
b10000100 g#
b10001000 e#
b0 i#
b100 j#
0U
b100 V
b100 s"
b100 ?#
b100 h#
b100 6
b10100 `
b10100 u"
b10100 F#
b11000 ?
b11000 +"
b11000 G#
b1000 8
b100000 n
b100000 M"
b100000 z"
b0 e
b0 /"
b0 F"
b0 "#
b0 g
b0 0"
b0 H"
b0 ~"
b1 i
b1 1"
b1 I"
b1 }"
1m
b0 c
b0 B"
b0 $#
b11 p
b11 C"
b11 y"
b10 q
b10 D"
b10 x"
b10000 k
b10000 J"
b10000 |"
b0 ""
b0 P"
b0 K#
b1000 %"
b1000 :"
b1000 O"
b1000 ^"
b1000 J#
b1100 |
b1100 K"
b1100 D#
b1100 }
b1100 R"
b1100 M#
b110 y
b110 3"
b110 T"
b111 x
b111 2"
b111 U"
b101 {
b101 4"
b101 S"
b101 _"
b101 N#
1z
b1 v
b1 W"
b1 P#
b10 ~
b10 Q"
b10 L#
0&"
b0 5
b0 a
b0 ."
b0 v"
b0 '#
b0 E#
1B
#85
0B
#90
b11000 @"
b11000 ]"
b1100 W
b1100 A"
b1100 t"
b1100 >#
b1100 Q#
b1100 f#
1i"
1O
05"
b0 >"
b0 ?"
b1100 X"
b1100 Z"
b1100 Y"
b1100 ["
b110000 H#
b10000111100100001010001100011 A
b10000111100100001010001100011 L
b10000111100100001010001100011 A#
b10000111100100001010001100011 B#
b1000 j#
b1000 @
b1000 I
b1000 ,"
b1000 R#
b0 \
b0 W#
b0 a#
b1100 [
b1100 X#
b1100 b#
0:
0^
b101 Z
b101 -"
b101 Y#
b101 c#
1Y
b1000 ]
b1000 U#
b1000 `#
b1 X
b1 Z#
b1 d#
16"
b10 ^#
b100000 ""
b100000 P"
b100000 K#
1!"
b110000 %"
b110000 :"
b110000 O"
b110000 ^"
b110000 J#
b110000 |
b110000 K"
b110000 D#
b10000 }
b10000 R"
b10000 M#
b0 y
b0 3"
b0 T"
b0 x
b0 2"
b0 U"
b1 {
b1 4"
b1 S"
b1 _"
b1 N#
b0 v
b0 W"
b0 P#
b0 l
b0 L"
b0 {"
0m
0h
b0 p
b0 C"
b0 y"
b0 q
b0 D"
b0 x"
b0 k
b0 J"
b0 |"
b0 n
b0 M"
b0 z"
b0 i
b0 1"
b0 I"
b0 }"
b11000 `
b11000 u"
b11000 F#
b11100 ?
b11100 +"
b11100 G#
1B
#95
0B
