run/cpu.VCD
$date
	Fri Aug 30 21:52:47 2024
$end
$version
	Icarus Verilog
$end
$timescale
	1s
$end
$scope module testbench $end
$var wire 32 ! reg_file_2 [31:0] $end
$var wire 4 " byte_mark [3:0] $end
$var wire 1 # WR $end
$var wire 1 $ RD $end
$var wire 32 % D_out [31:0] $end
$var wire 32 & D_in [31:0] $end
$var wire 1 ' DMEM_rst $end
$var wire 32 ( A_IMEM [31:0] $end
$var wire 32 ) A_DMEM [31:0] $end
$var reg 32 * Instr_in [31:0] $end
$var reg 1 + clk $end
$var reg 1 , rst_n $end
$var integer 32 - i [31:0] $end
$var integer 32 . j [31:0] $end
$var integer 32 / k [31:0] $end
$scope module ram $end
$var wire 1 + clk $end
$var wire 1 , rst_n $end
$var wire 32 0 data_in [31:0] $end
$var wire 4 1 byte_en [3:0] $end
$var wire 32 2 addr [31:0] $end
$var wire 1 # WR $end
$var wire 1 $ RD $end
$var reg 32 3 data_out [31:0] $end
$upscope $end
$scope module top $end
$var wire 32 4 D_in [31:0] $end
$var wire 32 5 Instr_in [31:0] $end
$var wire 1 $ RD $end
$var wire 1 # WR $end
$var wire 32 6 boot_add [31:0] $end
$var wire 4 7 byte_mark [3:0] $end
$var wire 1 + clk $end
$var wire 1 8 pc_sel $end
$var wire 1 , rst_n $end
$var wire 1 9 stall $end
$var wire 1 : hazard $end
$var wire 1 ; forward_dmem $end
$var wire 2 < forward_B [1:0] $end
$var wire 2 = forward_A [1:0] $end
$var wire 1 > WB_regwrite $end
$var wire 5 ? WB_rd_add [4:0] $end
$var wire 32 @ WB_data_write_reg [31:0] $end
$var wire 2 A MEM_sel_to_reg [1:0] $end
$var wire 1 B MEM_regwrite $end
$var wire 5 C MEM_rd_add [4:0] $end
$var wire 32 D MEM_pc [31:0] $end
$var wire 32 E MEM_imm [31:0] $end
$var wire 32 F MEM_alu_result [31:0] $end
$var wire 1 G MEM_WR_mem $end
$var wire 1 H MEM_RD_mem $end
$var wire 32 I IF_pc [31:0] $end
$var wire 32 J IF_instr [31:0] $end
$var wire 1 K IF_ID_flush $end
$var wire 2 L ID_sel_to_reg [1:0] $end
$var wire 32 M ID_rs2_data [31:0] $end
$var wire 5 N ID_rs2_add [4:0] $end
$var wire 32 O ID_rs1_data [31:0] $end
$var wire 5 P ID_rs1_add [4:0] $end
$var wire 1 Q ID_regwrite $end
$var wire 5 R ID_rd_add [4:0] $end
$var wire 1 S ID_pc_sel $end
$var wire 32 T ID_pc [31:0] $end
$var wire 4 U ID_mem_op [3:0] $end
$var wire 1 V ID_jump $end
$var wire 32 W ID_imm [31:0] $end
$var wire 1 X ID_branch $end
$var wire 2 Y ID_alu_sel2 [1:0] $end
$var wire 2 Z ID_alu_sel1 [1:0] $end
$var wire 4 [ ID_alu_op [3:0] $end
$var wire 1 \ ID_WR $end
$var wire 1 ] ID_RD $end
$var wire 1 ^ EX_zero $end
$var wire 2 _ EX_sel_to_reg [1:0] $end
$var wire 32 ` EX_rs2_data [31:0] $end
$var wire 5 a EX_rs2_add [4:0] $end
$var wire 5 b EX_rs1_add [4:0] $end
$var wire 1 c EX_regwrite $end
$var wire 5 d EX_rd_add [4:0] $end
$var wire 32 e EX_pc_dest [31:0] $end
$var wire 32 f EX_pc [31:0] $end
$var wire 4 g EX_mem_op [3:0] $end
$var wire 1 h EX_jump $end
$var wire 32 i EX_imm [31:0] $end
$var wire 1 j EX_flush $end
$var wire 1 k EX_branch $end
$var wire 32 l EX_alu_result [31:0] $end
$var wire 1 m EX_WR $end
$var wire 1 n EX_RD $end
$var wire 32 o D_out [31:0] $end
$var wire 1 ' DMEM_rst $end
$var wire 32 p DMEM_data_o [31:0] $end
$var wire 4 q DMEM_byte_mark [3:0] $end
$var wire 32 r A_IMEM [31:0] $end
$var wire 32 s A_DMEM [31:0] $end
$scope module control_hazard $end
$var wire 1 K IF_ID_flush_o $end
$var wire 1 + clk $end
$var wire 1 , rst_n $end
$var wire 1 ^ zero $end
$var wire 1 B MEM_regwrite_i $end
$var wire 5 t MEM_rd_add_i [4:0] $end
$var wire 32 u IF_instr_i [31:0] $end
$var wire 5 v ID_rs2_add_i [4:0] $end
$var wire 5 w ID_rs1_add_i [4:0] $end
$var wire 5 x ID_rd_add_i [4:0] $end
$var wire 1 V ID_jump $end
$var wire 1 ] ID_RD_mem_i $end
$var wire 5 y EX_rs2_add_i [4:0] $end
$var wire 5 z EX_rs1_add_i [4:0] $end
$var wire 1 c EX_regwrite_i $end
$var wire 5 { EX_rd_add_i [4:0] $end
$var reg 1 j EX_flush_o $end
$var reg 1 | IF_ID_flush1 $end
$var reg 1 } IF_ID_flush2 $end
$var reg 2 ~ forward_A_o [1:0] $end
$var reg 2 !" forward_B_o [1:0] $end
$var reg 1 ; forward_dmem $end
$var reg 1 : hazard $end
$var reg 7 "" opcode [6:0] $end
$var reg 1 9 stall_o $end
$upscope $end
$scope module ex_stage $end
$var wire 32 #" EX_data_i [31:0] $end
$var wire 1 + clk $end
$var wire 1 j flush $end
$var wire 2 $" forwardA [1:0] $end
$var wire 2 %" forwardB [1:0] $end
$var wire 1 : hazard $end
$var wire 1 , rst_n $end
$var wire 1 &" zero $end
$var wire 2 '" sel_to_alu_B [1:0] $end
$var wire 2 (" sel_to_alu_A [1:0] $end
$var wire 32 )" alu_result [31:0] $end
$var wire 32 *" WB_data_i [31:0] $end
$var wire 2 +" EX_sel_to_reg_i [1:0] $end
$var wire 2 ," EX_sel_alu2_i [1:0] $end
$var wire 2 -" EX_sel_alu1_i [1:0] $end
$var wire 32 ." EX_rs2_data_i [31:0] $end
$var wire 5 /" EX_rs2_add_i [4:0] $end
$var wire 32 0" EX_rs1_data_i [31:0] $end
$var wire 5 1" EX_rs1_add_i [4:0] $end
$var wire 1 Q EX_regwrite_i $end
$var wire 5 2" EX_rd_add_i [4:0] $end
$var wire 32 3" EX_pc_i [31:0] $end
$var wire 32 4" EX_pc_dest [31:0] $end
$var wire 4 5" EX_mem_op_i [3:0] $end
$var wire 1 V EX_jump_i $end
$var wire 32 6" EX_imm_i [31:0] $end
$var wire 1 X EX_branch_i $end
$var wire 4 7" EX_alu_op_i [3:0] $end
$var wire 1 \ EX_WR_mem_i $end
$var wire 1 ] EX_RD_mem_i $end
$var reg 1 n EX_RD_mem_o $end
$var reg 1 m EX_WR_mem_o $end
$var reg 32 8" EX_alu_result_o [31:0] $end
$var reg 1 k EX_branch_o $end
$var reg 32 9" EX_imm_o [31:0] $end
$var reg 1 h EX_jump_o $end
$var reg 4 :" EX_mem_op_o [3:0] $end
$var reg 32 ;" EX_pc_o [31:0] $end
$var reg 5 <" EX_rd_add_o [4:0] $end
$var reg 1 c EX_regwrite_o $end
$var reg 5 =" EX_rs1_add_o [4:0] $end
$var reg 5 >" EX_rs2_add_o [4:0] $end
$var reg 32 ?" EX_rs2_data_o [31:0] $end
$var reg 2 @" EX_sel_to_reg_o [1:0] $end
$var reg 1 ^ EX_zero_o $end
$var reg 32 A" op_a_alu [31:0] $end
$var reg 32 B" op_b_alu [31:0] $end
$scope module alu $end
$var wire 32 C" alu_op1_i [31:0] $end
$var wire 32 D" alu_op2_i [31:0] $end
$var wire 4 E" alu_ctrl_i [3:0] $end
$var reg 32 F" alu_result_o [31:0] $end
$var reg 1 &" zero_o $end
$upscope $end
$upscope $end
$scope module id_stage $end
$var wire 32 G" EX_ALU_result_i [31:0] $end
$var wire 1 k EX_branch_i $end
$var wire 1 h EX_jump_i $end
$var wire 5 H" EX_rd_add_i [4:0] $end
$var wire 1 ^ EX_zero_i $end
$var wire 1 + clk $end
$var wire 1 K flush $end
$var wire 32 I" match_1 [31:0] $end
$var wire 32 J" match_2 [31:0] $end
$var wire 1 , rst_n $end
$var wire 1 9 stall $end
$var wire 2 K" sel_to_reg [1:0] $end
$var wire 5 L" rs2_add [4:0] $end
$var wire 5 M" rs1_add [4:0] $end
$var wire 1 N" reg_write $end
$var wire 32 O" read_data_2 [31:0] $end
$var wire 32 P" read_data_1 [31:0] $end
$var wire 5 Q" rd_add [4:0] $end
$var wire 1 R" pc_sel $end
$var wire 1 S" mem_wr_en $end
$var wire 1 T" mem_rd_en $end
$var wire 4 U" mem_op [3:0] $end
$var wire 1 V" jump $end
$var wire 32 W" imm [31:0] $end
$var wire 1 X" branch $end
$var wire 2 Y" alu_sel2 [1:0] $end
$var wire 2 Z" alu_sel1 [1:0] $end
$var wire 4 [" alu_op [3:0] $end
$var wire 1 > WB_regwrite_i $end
$var wire 5 \" WB_rd_add_i [4:0] $end
$var wire 32 ]" WB_data_i [31:0] $end
$var wire 32 ^" ID_pc_i [31:0] $end
$var wire 32 _" ID_instr_i [31:0] $end
$var reg 1 ] ID_RD_en_o $end
$var reg 1 \ ID_WR_en_o $end
$var reg 4 `" ID_alu_op_o [3:0] $end
$var reg 2 a" ID_alu_sel1_o [1:0] $end
$var reg 2 b" ID_alu_sel2_o [1:0] $end
$var reg 1 X ID_branch_o $end
$var reg 32 c" ID_imm_o [31:0] $end
$var reg 1 V ID_jump_o $end
$var reg 4 d" ID_mem_op_o [3:0] $end
$var reg 32 e" ID_pc_o [31:0] $end
$var reg 1 S ID_pc_sel_o $end
$var reg 5 f" ID_rd_add_o [4:0] $end
$var reg 1 Q ID_regwrite_o $end
$var reg 5 g" ID_rs1_add_o [4:0] $end
$var reg 32 h" ID_rs1_data_o [31:0] $end
$var reg 5 i" ID_rs2_add_o [4:0] $end
$var reg 32 j" ID_rs2_data_o [31:0] $end
$var reg 2 k" ID_sel_to_reg_o [1:0] $end
$var reg 32 l" rs1_data_temp [31:0] $end
$var reg 32 m" rs2_data_temp [31:0] $end
$scope module decode $end
$var wire 1 k EX_branch_i $end
$var wire 1 h EX_jump_i $end
$var wire 1 ^ EX_zero_i $end
$var wire 32 n" instr_i [31:0] $end
$var reg 3 o" FUNCT3 [2:0] $end
$var reg 32 p" IMM_B [31:0] $end
$var reg 32 q" IMM_I [31:0] $end
$var reg 32 r" IMM_J [31:0] $end
$var reg 32 s" IMM_S [31:0] $end
$var reg 32 t" IMM_U [31:0] $end
$var reg 4 u" alu_op_o [3:0] $end
$var reg 2 v" alu_sel1_o [1:0] $end
$var reg 2 w" alu_sel2_o [1:0] $end
$var reg 1 X" branch_o $end
$var reg 4 x" funct7 [3:0] $end
$var reg 32 y" imm_o [31:0] $end
$var reg 1 V" jump_o $end
$var reg 4 z" mem_op_o [3:0] $end
$var reg 1 T" mem_rd_en_o $end
$var reg 1 S" mem_wr_en_o $end
$var reg 7 {" opcode [6:0] $end
$var reg 1 R" pc_sel_o $end
$var reg 5 |" rd_add_o [4:0] $end
$var reg 1 N" reg_write_o $end
$var reg 5 }" rs1_add_o [4:0] $end
$var reg 5 ~" rs2_add_o [4:0] $end
$var reg 2 !# sel_to_reg_o [1:0] $end
$upscope $end
$scope module reg_file $end
$var wire 5 "# address_1 [4:0] $end
$var wire 5 ## address_2 [4:0] $end
$var wire 5 $# address_3 [4:0] $end
$var wire 1 + clk $end
$var wire 1 , rst_n $end
$var wire 1 %# unused_reset $end
$var wire 1 > reg_write $end
$var wire 32 &# read_data_2 [31:0] $end
$var wire 32 '# read_data_1 [31:0] $end
$var wire 32 (# data_write [31:0] $end
$var integer 32 )# i [31:0] $end
$upscope $end
$upscope $end
$scope module if_stage $end
$var wire 32 *# IF_instr_i [31:0] $end
$var wire 32 +# IMEM_data_i [31:0] $end
$var wire 32 ,# boot_add [31:0] $end
$var wire 1 + clk $end
$var wire 1 K flush $end
$var wire 32 -# pc_dest [31:0] $end
$var wire 1 8 pc_sel $end
$var wire 1 , rst_n $end
$var wire 1 9 stall $end
$var reg 32 .# IF_instr_o [31:0] $end
$var reg 32 /# IF_pc_o [31:0] $end
$var reg 32 0# IMEM_add_o [31:0] $end
$var reg 32 1# pc_next [31:0] $end
$upscope $end
$scope module mem_stage $end
$var wire 32 2# DMEM_data_i [31:0] $end
$var wire 1 n MEM_RD_mem_i $end
$var wire 1 m MEM_WR_mem_i $end
$var wire 32 3# MEM_alu_result_i [31:0] $end
$var wire 32 4# MEM_imm_i [31:0] $end
$var wire 4 5# MEM_mem_op_i [3:0] $end
$var wire 32 6# MEM_pc_i [31:0] $end
$var wire 5 7# MEM_rd_add_i [4:0] $end
$var wire 1 c MEM_regwrite_i $end
$var wire 32 8# MEM_rs2_data_i [31:0] $end
$var wire 2 9# MEM_sel_to_reg_i [1:0] $end
$var wire 1 + clk $end
$var wire 1 ; forward $end
$var wire 1 , rst_n $end
$var wire 32 :# WB_data_i [31:0] $end
$var reg 32 ;# DMEM_add_o [31:0] $end
$var reg 4 <# DMEM_byte_mark_o [3:0] $end
$var reg 32 =# DMEM_data_write_o [31:0] $end
$var reg 1 ' DMEM_rst_o $end
$var reg 1 H MEM_RD_mem_o $end
$var reg 1 G MEM_WR_mem_o $end
$var reg 32 ># MEM_alu_result_o [31:0] $end
$var reg 32 ?# MEM_data_o [31:0] $end
$var reg 32 @# MEM_imm_o [31:0] $end
$var reg 32 A# MEM_pc_o [31:0] $end
$var reg 5 B# MEM_rd_add_o [4:0] $end
$var reg 1 B MEM_regwrite_o $end
$var reg 2 C# MEM_sel_to_reg_o [1:0] $end
$var reg 2 D# byte_addr [1:0] $end
$var reg 4 E# byte_mark [3:0] $end
$var reg 32 F# data_write [31:0] $end
$var reg 4 G# mem_op [3:0] $end
$upscope $end
$scope module wb_stage $end
$var wire 32 H# DMEM_data_i [31:0] $end
$var wire 32 I# WB_alu_result_i [31:0] $end
$var wire 32 J# WB_imm_i [31:0] $end
$var wire 32 K# WB_pc_i [31:0] $end
$var wire 5 L# WB_rd_add_i [4:0] $end
$var wire 1 B WB_regwrite_i $end
$var wire 2 M# WB_sel_to_reg_i [1:0] $end
$var wire 1 + clk $end
$var wire 1 , rst_n $end
$var reg 32 N# WB_data_write_reg_o [31:0] $end
$var reg 5 O# WB_rd_add_o [4:0] $end
$var reg 1 > WB_regwrite_o $end
$var reg 32 P# pc [31:0] $end
$upscope $end
$upscope $end
$upscope $end
$enddefinitions $end
#0
$dumpvars
bx P#
bx O#
bx N#
bx M#
bx L#
bx K#
bx J#
bx I#
bx H#
bx G#
bx F#
bx E#
bx D#
bx C#
bx B#
bx A#
bx @#
bx ?#
bx >#
bx =#
bx <#
bx ;#
bx :#
bx 9#
bx 8#
bx 7#
bx 6#
bx 5#
bx 4#
bx 3#
bx 2#
bx 1#
bx 0#
bx /#
bx .#
bx -#
b0 ,#
bx +#
bx *#
b11111 )#
bx (#
bx '#
bx &#
x%#
bx $#
bx ##
bx "#
bx !#
bx ~"
bx }"
bx |"
bx {"
bx z"
bx y"
bx x"
bx w"
bx v"
bx u"
bx t"
bx s"
bx r"
bx q"
bx p"
bx o"
bx n"
bx m"
bx l"
bx k"
bx j"
bx i"
bx h"
bx g"
bx f"
bx e"
bx d"
bx c"
bx b"
bx a"
bx `"
bx _"
bx ^"
bx ]"
bx \"
bx ["
bx Z"
bx Y"
xX"
bx W"
xV"
bx U"
xT"
xS"
xR"
bx Q"
bx P"
bx O"
xN"
bx M"
bx L"
bx K"
b0x J"
b0x I"
bx H"
bx G"
bx F"
bx E"
bx D"
bx C"
bx B"
bx A"
bx @"
bx ?"
bx >"
bx ="
bx <"
bx ;"
bx :"
bx 9"
bx 8"
bx 7"
bx 6"
bx 5"
bx 4"
bx 3"
bx 2"
bx 1"
bx 0"
bx /"
bx ."
bx -"
bx ,"
bx +"
bx *"
bx )"
bx ("
bx '"
x&"
bx %"
bx $"
bx #"
bx ""
bx !"
bx ~
x}
x|
bx {
bx z
bx y
bx x
bx w
bx v
bx u
bx t
bx s
bx r
bx q
bx p
bx o
xn
xm
bx l
xk
xj
bx i
xh
bx g
bx f
bx e
bx d
xc
bx b
bx a
bx `
bx _
x^
x]
x\
bx [
bx Z
bx Y
xX
bx W
xV
bx U
bx T
xS
bx R
xQ
bx P
bx O
bx N
bx M
bx L
xK
bx J
bx I
xH
xG
bx F
bx E
bx D
bx C
xB
bx A
bx @
bx ?
x>
bx =
bx <
x;
x:
x9
x8
bx 7
b0 6
bx 5
bx 4
bx 3
bx 2
bx 1
bx 0
bx /
bx .
bx -
x,
x+
bx *
bx )
bx (
x'
bx &
bx %
x$
x#
bx "
b0 !
$end
#5
b100000000 /
b100 !
b100000 -
#10
b100000 .
#20
b100 B"
b100 D"
b100 A"
b100 C"
b100 M
b100 ."
b100 j"
b100 O
b100 0"
b100 h"
b100 O"
b100 &#
b100 P"
b100 '#
0K
b100 @
b100 *"
b100 ]"
b100 (#
b100 :#
b100 N#
b0 J"
b0 I"
0&"
b1000 )"
b1000 F"
08
0j
0|
b100 1#
b0 %
b0 0
b0 o
b0 =#
b0 "
b0 1
b0 7
b0 q
b0 <#
0;
b0 <
b0 !"
b0 %"
b0 =
b0 ~
b0 $"
b0 P#
0>
b0 ?
b0 \"
b0 O#
b0 F#
b0 ("
b0 '"
09
b0 ""
b0 r"
b0 t"
b0 p"
b0 s"
b0 q"
b0 x"
b0 o"
b0 {"
0N"
b10 U"
b10 z"
0R"
0X"
0V"
b0 K"
b0 !#
0S"
0T"
b0 ["
b0 u"
b0 Y"
b0 w"
b0 Z"
b0 v"
b0 W"
b0 y"
b0 L"
b0 ~"
b0 ##
b0 M"
b0 }"
b0 "#
b0 Q"
b0 |"
b0 $#
b0 p
b0 ?#
b0 H#
b0 I
b0 ^"
b0 /#
b0 (
b0 r
b0 0#
b0 W
b0 6"
b0 c"
b0 N
b0 v
b0 /"
b0 i"
b0 P
b0 w
b0 1"
b0 g"
b0 R
b0 x
b0 2"
b0 f"
0S
b0 U
b0 5"
b0 d"
0V
b0 L
b0 +"
b0 k"
0Q
0]
0\
0X
b0 [
b0 7"
b0 E"
b0 `"
b0 Y
b0 ,"
b0 b"
b0 Z
b0 -"
b0 a"
b0 T
b0 3"
b0 e"
0h
0k
b0 `
b0 ?"
b0 8#
0^
b0 e
b0 4"
b0 -#
b0 i
b0 9"
b0 4#
b0 l
b0 #"
b0 8"
b0 G"
b0 3#
b0 f
b0 ;"
b0 6#
b0 b
b0 z
b0 ="
b0 a
b0 y
b0 >"
0c
b0 d
b0 {
b0 <"
b0 H"
b0 7#
b0 _
b0 @"
b0 9#
b0 g
b0 :"
b0 5#
0m
0n
b0 E#
b0 E
b0 @#
b0 J#
b0 D
b0 A#
b0 K#
0#
0G
0$
0H
b0 C
b0 t
b0 B#
b0 L#
0B
b0 F
b0 >#
b0 I#
b0 A
b0 C#
b0 M#
b0 D#
b0 G#
0:
0}
b0 J
b0 u
b0 _"
b0 n"
b0 .#
b0 m"
b0 l"
b0 &
b0 3
b0 4
b0 2#
1'
b0 )
b0 2
b0 s
b0 ;#
1+
0%#
0,
b10000011000000100110011 *
b10000011000000100110011 5
b10000011000000100110011 *#
b10000011000000100110011 +#
#25
0'
0+
1%#
1,
#30
b10 Y"
b10 w"
b11 Z"
b11 v"
b1 K"
b1 !#
1N"
b100 F#
b1000 )
b1000 2
b1000 s
b1000 ;#
b1000 1#
b11100110000001010110011 *
b11100110000001010110011 5
b11100110000001010110011 *#
b11100110000001010110011 +#
b11000000000000100 r"
b10000011000000000000000 t"
b10 p"
b10 s"
b100 q"
b110011 {"
b110011 ""
b100 L"
b100 ~"
b100 ##
b11 M"
b11 }"
b11 "#
b10 Q"
b10 |"
b10 $#
b100 m"
b100 l"
b100 `
b100 ?"
b100 8#
b1000 l
b1000 #"
b1000 8"
b1000 G"
b1000 3#
b10 U
b10 5"
b10 d"
b100 (
b100 r
b100 0#
b10000011000000100110011 J
b10000011000000100110011 u
b10000011000000100110011 _"
b10000011000000100110011 n"
b10000011000000100110011 .#
1+
#35
0+
#40
b1100 1#
b101001001000010000110011 *
b101001001000010000110011 5
b101001001000010000110011 *#
b101001001000010000110011 +#
b10 '"
b11 ("
b110000100000000110 r"
b11100110000000000000000 t"
b100000000100 p"
b101 s"
b111 q"
1N"
b1 K"
b1 !#
b10 Y"
b10 w"
b11 Z"
b11 v"
b111 L"
b111 ~"
b111 ##
b110 M"
b110 }"
b110 "#
b101 Q"
b101 |"
b101 $#
b100 I
b100 ^"
b100 /#
b1000 (
b1000 r
b1000 0#
b100 N
b100 v
b100 /"
b100 i"
b11 P
b11 w
b11 1"
b11 g"
b10 R
b10 x
b10 2"
b10 f"
b1 L
b1 +"
b1 k"
1Q
b10 Y
b10 ,"
b10 b"
b11 Z
b11 -"
b11 a"
b10 g
b10 :"
b10 5#
b1000 F
b1000 >#
b1000 I#
b11100110000001010110011 J
b11100110000001010110011 u
b11100110000001010110011 _"
b11100110000001010110011 n"
b11100110000001010110011 .#
1+
#45
0+
#50
b10000 1#
b110101100000010110110011 *
b110101100000010110110011 5
b110101100000010110110011 *#
b110101100000010110110011 +#
b1001000000000001010 r"
b101001001000000000000000 t"
b1000 p"
b1000 s"
b1010 q"
1N"
b1 K"
b1 !#
b10 Y"
b10 w"
b11 Z"
b11 v"
b1010 L"
b1010 ~"
b1010 ##
b1001 M"
b1001 }"
b1001 "#
b1000 Q"
b1000 |"
b1000 $#
b10 G#
b100 a
b100 y
b100 >"
b10 d
b10 {
b10 <"
b10 H"
b10 7#
1c
b1 _
b1 @"
b1 9#
b100 T
b100 3"
b100 e"
b111 N
b111 v
b111 /"
b111 i"
b110 P
b110 w
b110 1"
b110 g"
b101 R
b101 x
b101 2"
b101 f"
b1000 I
b1000 ^"
b1000 /#
b1100 (
b1100 r
b1100 0#
b101001001000010000110011 J
b101001001000010000110011 u
b101001001000010000110011 _"
b101001001000010000110011 n"
b101001001000010000110011 .#
1+
#55
0+
#60
b100000011011000100000011 *
b100000011011000100000011 5
b100000011011000100000011 *#
b100000011011000100000011 +#
b10100 1#
1>
b10 ?
b10 \"
b10 O#
b1000 @
b1000 *"
b1000 ]"
b1000 (#
b1000 :#
b1000 N#
b1100000100000001100 r"
b110101100000000000000000 t"
b100000001010 p"
b1011 s"
b1101 q"
1N"
b1 K"
b1 !#
b10 Y"
b10 w"
b11 Z"
b11 v"
b1101 L"
b1101 ~"
b1101 ##
b1100 M"
b1100 }"
b1100 "#
b1011 Q"
b1011 |"
b1011 $#
b1100 I
b1100 ^"
b1100 /#
b10000 (
b10000 r
b10000 0#
b1010 N
b1010 v
b1010 /"
b1010 i"
b1001 P
b1001 w
b1001 1"
b1001 g"
b1000 R
b1000 x
b1000 2"
b1000 f"
b1000 T
b1000 3"
b1000 e"
b100 e
b100 4"
b100 -#
b100 f
b100 ;"
b100 6#
b111 a
b111 y
b111 >"
b101 d
b101 {
b101 <"
b101 H"
b101 7#
b10 C
b10 t
b10 B#
b10 L#
1B
b1 A
b1 C#
b1 M#
b110101100000010110110011 J
b110101100000010110110011 u
b110101100000010110110011 _"
b110101100000010110110011 n"
b110101100000010110110011 .#
1+
#65
0+
#70
1T"
b1000 W"
b1000 y"
b100 P#
b101 ?
b101 \"
b101 O#
b11000 1#
b100000110011001010000011 *
b100000110011001010000011 5
b100000110011001010000011 *#
b100000110011001010000011 +#
b11011000000001000 r"
b100000011011000000000000 t"
b10 p"
b10 s"
b1000 q"
b11 o"
b11 {"
b11 ""
1N"
b10 K"
b10 !#
b11 Y"
b11 w"
b11 Z"
b11 v"
b0 L"
b0 ~"
b0 ##
b11 M"
b11 }"
b11 "#
b10 Q"
b10 |"
b10 $#
b100 D
b100 A#
b100 K#
b101 C
b101 t
b101 B#
b101 L#
b1000 e
b1000 4"
b1000 -#
b1000 f
b1000 ;"
b1000 6#
b1010 a
b1010 y
b1010 >"
b1000 d
b1000 {
b1000 <"
b1000 H"
b1000 7#
b1100 T
b1100 3"
b1100 e"
b1101 N
b1101 v
b1101 /"
b1101 i"
b1100 P
b1100 w
b1100 1"
b1100 g"
b1011 R
b1011 x
b1011 2"
b1011 f"
b10000 I
b10000 ^"
b10000 /#
b10100 (
b10100 r
b10100 0#
b100000011011000100000011 J
b100000011011000100000011 u
b100000011011000100000011 _"
b100000011011000100000011 n"
b100000011011000100000011 .#
1+
#75
0+
#80
b1100 )"
b1100 F"
b100001010011010010000011 *
b100001010011010010000011 5
b100001010011010010000011 *#
b100001010011010010000011 +#
b1000 B"
b1000 D"
b11 '"
b11100 1#
b1000 P#
b1000 ?
b1000 \"
b1000 O#
b110011000000001000 r"
b100000110011000000000000 t"
b100000000100 p"
b101 s"
1N"
b10 K"
b10 !#
1T"
b11 Y"
b11 w"
b11 Z"
b11 v"
b1000 W"
b1000 y"
b0 L"
b0 ~"
b0 ##
b110 M"
b110 }"
b110 "#
b101 Q"
b101 |"
b101 $#
b10100 I
b10100 ^"
b10100 /#
b11000 (
b11000 r
b11000 0#
b1000 !
b1000 W
b1000 6"
b1000 c"
b0 N
b0 v
b0 /"
b0 i"
b11 P
b11 w
b11 1"
b11 g"
b10 R
b10 x
b10 2"
b10 f"
b10 L
b10 +"
b10 k"
1]
b11 Y
b11 ,"
b11 b"
b10000 T
b10000 3"
b10000 e"
b1100 e
b1100 4"
b1100 -#
b1100 f
b1100 ;"
b1100 6#
b1101 a
b1101 y
b1101 >"
b1011 d
b1011 {
b1011 <"
b1011 H"
b1011 7#
b1000 D
b1000 A#
b1000 K#
b1000 C
b1000 t
b1000 B#
b1000 L#
b100000110011001010000011 J
b100000110011001010000011 u
b100000110011001010000011 _"
b100000110011001010000011 n"
b100000110011001010000011 .#
1+
#85
0+
#90
b1100 P#
b1011 ?
b1011 \"
b1011 O#
b1100 )
b1100 2
b1100 s
b1100 ;#
b100000 1#
b100001100011010110000011 *
b100001100011010110000011 5
b100001100011010110000011 *#
b100001100011010110000011 +#
b1010011000000001000 r"
b100001010011000000000000 t"
b100000001000 p"
b1001 s"
1N"
b10 K"
b10 !#
1T"
b11 Y"
b11 w"
b11 Z"
b11 v"
b1000 W"
b1000 y"
b0 L"
b0 ~"
b0 ##
b1010 M"
b1010 }"
b1010 "#
b1001 Q"
b1001 |"
b1001 $#
b1100 D
b1100 A#
b1100 K#
b1011 C
b1011 t
b1011 B#
b1011 L#
b1000 i
b1000 9"
b1000 4#
b1100 l
b1100 #"
b1100 8"
b1100 G"
b1100 3#
b11000 e
b11000 4"
b11000 -#
b10000 f
b10000 ;"
b10000 6#
b0 a
b0 y
b0 >"
b10 d
b10 {
b10 <"
b10 H"
b10 7#
b10 _
b10 @"
b10 9#
1n
b10100 T
b10100 3"
b10100 e"
b110 P
b110 w
b110 1"
b110 g"
b101 R
b101 x
b101 2"
b101 f"
b11000 I
b11000 ^"
b11000 /#
b11100 (
b11100 r
b11100 0#
b100001010011010010000011 J
b100001010011010010000011 u
b100001010011010010000011 _"
b100001010011010010000011 n"
b100001010011010010000011 .#
1+
#95
0+
#100
b10000011000000100110011 *
b10000011000000100110011 5
b10000011000000100110011 *#
b10000011000000100110011 +#
b100100 1#
b10000 P#
b10 ?
b10 \"
b10 O#
b0 @
b0 *"
b0 ]"
b0 (#
b0 :#
b0 N#
b1100011000000001000 r"
b100001100011000000000000 t"
b100000001010 p"
b1011 s"
1N"
b10 K"
b10 !#
1T"
b11 Y"
b11 w"
b11 Z"
b11 v"
b1000 W"
b1000 y"
b0 L"
b0 ~"
b0 ##
b1100 M"
b1100 }"
b1100 "#
b1011 Q"
b1011 |"
b1011 $#
b11100 I
b11100 ^"
b11100 /#
b100000 (
b100000 r
b100000 0#
b1010 P
b1010 w
b1010 1"
b1010 g"
b1001 R
b1001 x
b1001 2"
b1001 f"
b11000 T
b11000 3"
b11000 e"
b11100 e
b11100 4"
b11100 -#
b10100 f
b10100 ;"
b10100 6#
b101 d
b101 {
b101 <"
b101 H"
b101 7#
b1000 E
b1000 @#
b1000 J#
b10000 D
b10000 A#
b10000 K#
1$
1H
b10 C
b10 t
b10 B#
b10 L#
b1100 F
b1100 >#
b1100 I#
b10 A
b10 C#
b10 M#
b100001100011010110000011 J
b100001100011010110000011 u
b100001100011010110000011 _"
b100001100011010110000011 n"
b100001100011010110000011 .#
1+
#105
0+
#110
b1110 @
b1110 *"
b1110 ]"
b1110 (#
b1110 :#
b1110 N#
b1110 p
b1110 ?#
b1110 H#
b10100 P#
b101 ?
b101 \"
b101 O#
b101000 1#
b11100110000001010110011 *
b11100110000001010110011 5
b11100110000001010110011 *#
b11100110000001010110011 +#
b11000000000000100 r"
b10000011000000000000000 t"
b10 p"
b10 s"
b100 q"
b0 o"
b110011 {"
b110011 ""
1N"
b1 K"
b1 !#
0T"
b10 Y"
b10 w"
b11 Z"
b11 v"
b0 W"
b0 y"
b100 L"
b100 ~"
b100 ##
b11 M"
b11 }"
b11 "#
b10 Q"
b10 |"
b10 $#
b1110 &
b1110 3
b1110 4
b1110 2#
b10100 D
b10100 A#
b10100 K#
b101 C
b101 t
b101 B#
b101 L#
b100000 e
b100000 4"
b100000 -#
b11000 f
b11000 ;"
b11000 6#
b1001 d
b1001 {
b1001 <"
b1001 H"
b1001 7#
b11100 T
b11100 3"
b11100 e"
b1100 P
b1100 w
b1100 1"
b1100 g"
b1011 R
b1011 x
b1011 2"
b1011 f"
b100000 I
b100000 ^"
b100000 /#
b100100 (
b100100 r
b100100 0#
b10000011000000100110011 J
b10000011000000100110011 u
b10000011000000100110011 _"
b10000011000000100110011 n"
b10000011000000100110011 .#
1+
#115
0+
