run/cpu.VCD
$date
	Wed Aug 28 17:13:32 2024
$end
$version
	Icarus Verilog
$end
$timescale
	1s
$end
$scope module testbench $end
$var wire 1 ! RD $end
$var wire 1 " WR $end
$var wire 4 # byte_mark [3:0] $end
$var wire 32 $ D_out [31:0] $end
$var wire 32 % D_in [31:0] $end
$var wire 1 & DMEM_rst $end
$var wire 32 ' A_IMEM [31:0] $end
$var wire 32 ( A_DMEM [31:0] $end
$var reg 32 ) Instr_in [31:0] $end
$var reg 1 * clk $end
$var reg 1 + rst_n $end
$var integer 32 , i [31:0] $end
$var integer 32 - j [31:0] $end
$scope module ram $end
$var wire 1 ! RD $end
$var wire 1 " WR $end
$var wire 4 . byte_en [3:0] $end
$var wire 1 * clk $end
$var wire 1 + rst_n $end
$var wire 32 / data_in [31:0] $end
$var wire 32 0 addr [31:0] $end
$var reg 32 1 data_out [31:0] $end
$upscope $end
$scope module top $end
$var wire 32 2 D_in [31:0] $end
$var wire 32 3 Instr_in [31:0] $end
$var wire 32 4 MEM_data [31:0] $end
$var wire 1 ! RD $end
$var wire 1 " WR $end
$var wire 32 5 boot_add [31:0] $end
$var wire 4 6 byte_mark [3:0] $end
$var wire 1 * clk $end
$var wire 1 + rst_n $end
$var wire 1 7 stall $end
$var wire 1 8 hazard $end
$var wire 1 9 forward_dmem $end
$var wire 2 : forward_B [1:0] $end
$var wire 2 ; forward_A [1:0] $end
$var wire 1 < WB_regwrite $end
$var wire 5 = WB_rd_add [4:0] $end
$var wire 32 > WB_data_write_reg [31:0] $end
$var wire 2 ? MEM_sel_to_reg [1:0] $end
$var wire 1 @ MEM_regwrite $end
$var wire 5 A MEM_rd_add [4:0] $end
$var wire 32 B MEM_pc [31:0] $end
$var wire 32 C MEM_imm [31:0] $end
$var wire 32 D MEM_alu_result [31:0] $end
$var wire 1 E MEM_WR_mem $end
$var wire 1 F MEM_RD_mem $end
$var wire 32 G IF_pc [31:0] $end
$var wire 32 H IF_instr [31:0] $end
$var wire 1 I IF_ID_flush $end
$var wire 2 J ID_sel_to_reg [1:0] $end
$var wire 32 K ID_rs2_data [31:0] $end
$var wire 5 L ID_rs2_add [4:0] $end
$var wire 32 M ID_rs1_data [31:0] $end
$var wire 5 N ID_rs1_add [4:0] $end
$var wire 1 O ID_regwrite $end
$var wire 5 P ID_rd_add [4:0] $end
$var wire 1 Q ID_pc_sel $end
$var wire 32 R ID_pc [31:0] $end
$var wire 4 S ID_mem_op [3:0] $end
$var wire 1 T ID_jump $end
$var wire 32 U ID_imm [31:0] $end
$var wire 1 V ID_branch $end
$var wire 2 W ID_alu_sel2 [1:0] $end
$var wire 2 X ID_alu_sel1 [1:0] $end
$var wire 4 Y ID_alu_op [3:0] $end
$var wire 1 Z ID_WR $end
$var wire 1 [ ID_RD $end
$var wire 1 \ EX_zero $end
$var wire 2 ] EX_sel_to_reg [1:0] $end
$var wire 32 ^ EX_rs2_data [31:0] $end
$var wire 5 _ EX_rs2_add [4:0] $end
$var wire 5 ` EX_rs1_add [4:0] $end
$var wire 1 a EX_regwrite $end
$var wire 5 b EX_rd_add [4:0] $end
$var wire 32 c EX_pc_dest [31:0] $end
$var wire 32 d EX_pc [31:0] $end
$var wire 4 e EX_mem_op [3:0] $end
$var wire 32 f EX_imm [31:0] $end
$var wire 1 g EX_flush $end
$var wire 32 h EX_alu_result [31:0] $end
$var wire 1 i EX_WR $end
$var wire 1 j EX_RD $end
$var wire 32 k D_out [31:0] $end
$var wire 1 & DMEM_rst $end
$var wire 32 l DMEM_data_write [31:0] $end
$var wire 4 m DMEM_byte_mark [3:0] $end
$var wire 32 n A_IMEM [31:0] $end
$var wire 32 o A_DMEM [31:0] $end
$scope module control_hazard $end
$var wire 1 I IF_ID_flush_o $end
$var wire 1 * clk $end
$var wire 1 + rst_n $end
$var wire 1 \ zero $end
$var wire 1 @ MEM_regwrite_i $end
$var wire 5 p MEM_rd_add_i [4:0] $end
$var wire 32 q IF_instr_i [31:0] $end
$var wire 5 r ID_rs2_add_i [4:0] $end
$var wire 5 s ID_rs1_add_i [4:0] $end
$var wire 5 t ID_rd_add_i [4:0] $end
$var wire 1 T ID_jump $end
$var wire 1 [ ID_RD_mem_i $end
$var wire 5 u EX_rs2_add_i [4:0] $end
$var wire 5 v EX_rs1_add_i [4:0] $end
$var wire 1 a EX_regwrite_i $end
$var wire 5 w EX_rd_add_i [4:0] $end
$var reg 1 g EX_flush_o $end
$var reg 1 x IF_ID_flush1 $end
$var reg 1 y IF_ID_flush2 $end
$var reg 2 z forward_A_o [1:0] $end
$var reg 2 { forward_B_o [1:0] $end
$var reg 1 9 forward_dmem $end
$var reg 1 8 hazard $end
$var reg 7 | opcode [6:0] $end
$var reg 1 7 stall_o $end
$upscope $end
$scope module ex_stage $end
$var wire 32 } EX_data_i [31:0] $end
$var wire 1 * clk $end
$var wire 1 g flush $end
$var wire 2 ~ forwardA [1:0] $end
$var wire 2 !" forwardB [1:0] $end
$var wire 1 8 hazard $end
$var wire 1 + rst_n $end
$var wire 1 "" zero $end
$var wire 2 #" sel_to_alu_B [1:0] $end
$var wire 2 $" sel_to_alu_A [1:0] $end
$var wire 32 %" alu_result [31:0] $end
$var wire 32 &" WB_data_i [31:0] $end
$var wire 2 '" EX_sel_to_reg_i [1:0] $end
$var wire 2 (" EX_sel_alu2_i [1:0] $end
$var wire 2 )" EX_sel_alu1_i [1:0] $end
$var wire 32 *" EX_rs2_data_i [31:0] $end
$var wire 5 +" EX_rs2_add_i [4:0] $end
$var wire 32 ," EX_rs1_data_i [31:0] $end
$var wire 5 -" EX_rs1_add_i [4:0] $end
$var wire 1 O EX_regwrite_i $end
$var wire 5 ." EX_rd_add_i [4:0] $end
$var wire 32 /" EX_pc_i [31:0] $end
$var wire 4 0" EX_mem_op_i [3:0] $end
$var wire 32 1" EX_imm_i [31:0] $end
$var wire 4 2" EX_alu_op_i [3:0] $end
$var wire 1 Z EX_WR_mem_i $end
$var wire 1 [ EX_RD_mem_i $end
$var reg 1 j EX_RD_mem_o $end
$var reg 1 i EX_WR_mem_o $end
$var reg 32 3" EX_alu_result_o [31:0] $end
$var reg 32 4" EX_imm_o [31:0] $end
$var reg 4 5" EX_mem_op_o [3:0] $end
$var reg 32 6" EX_pc_dest [31:0] $end
$var reg 32 7" EX_pc_o [31:0] $end
$var reg 5 8" EX_rd_add_o [4:0] $end
$var reg 1 a EX_regwrite_o $end
$var reg 5 9" EX_rs1_add_o [4:0] $end
$var reg 5 :" EX_rs2_add_o [4:0] $end
$var reg 32 ;" EX_rs2_data_o [31:0] $end
$var reg 2 <" EX_sel_to_reg_o [1:0] $end
$var reg 1 \ EX_zero_o $end
$var reg 32 =" op_a_alu [31:0] $end
$var reg 32 >" op_b_alu [31:0] $end
$scope module alu $end
$var wire 32 ?" alu_op1_i [31:0] $end
$var wire 32 @" alu_op2_i [31:0] $end
$var wire 4 A" alu_ctrl_i [3:0] $end
$var reg 32 B" alu_result_o [31:0] $end
$var reg 1 "" zero_o $end
$upscope $end
$upscope $end
$scope module id_stage $end
$var wire 32 C" EX_ALU_result_i [31:0] $end
$var wire 1 D" EX_branch $end
$var wire 1 E" EX_jump $end
$var wire 5 F" EX_rd_add_i [4:0] $end
$var wire 1 G" EX_zero $end
$var wire 1 * clk $end
$var wire 1 I flush $end
$var wire 32 H" match_1 [31:0] $end
$var wire 32 I" match_2 [31:0] $end
$var wire 32 J" pc [31:0] $end
$var wire 1 + rst_n $end
$var wire 1 7 stall $end
$var wire 2 K" sel_to_reg [1:0] $end
$var wire 32 L" rs2_data [31:0] $end
$var wire 5 M" rs2_add [4:0] $end
$var wire 32 N" rs1_data [31:0] $end
$var wire 5 O" rs1_add [4:0] $end
$var wire 1 P" reg_write $end
$var wire 32 Q" read_data_3 [31:0] $end
$var wire 32 R" read_data_2 [31:0] $end
$var wire 32 S" read_data_1 [31:0] $end
$var wire 5 T" rd_add [4:0] $end
$var wire 1 U" pc_sel $end
$var wire 1 V" mem_wr_en $end
$var wire 1 W" mem_rd_en $end
$var wire 4 X" mem_op [3:0] $end
$var wire 1 Y" jump $end
$var wire 32 Z" imm [31:0] $end
$var wire 1 [" branch $end
$var wire 2 \" alu_sel2 [1:0] $end
$var wire 2 ]" alu_sel1 [1:0] $end
$var wire 4 ^" alu_op [3:0] $end
$var wire 1 < WB_regwrite_i $end
$var wire 5 _" WB_rd_add_i [4:0] $end
$var wire 32 `" WB_data_i [31:0] $end
$var wire 32 a" ID_pc_i [31:0] $end
$var wire 32 b" ID_instr_i [31:0] $end
$var reg 1 [ ID_RD_en_o $end
$var reg 1 Z ID_WR_en_o $end
$var reg 4 c" ID_alu_op_o [3:0] $end
$var reg 2 d" ID_alu_sel1_o [1:0] $end
$var reg 2 e" ID_alu_sel2_o [1:0] $end
$var reg 1 V ID_branch_o $end
$var reg 32 f" ID_imm_o [31:0] $end
$var reg 1 T ID_jump_o $end
$var reg 4 g" ID_mem_op_o [3:0] $end
$var reg 32 h" ID_pc_o [31:0] $end
$var reg 1 Q ID_pc_sel_o $end
$var reg 5 i" ID_rd_add_o [4:0] $end
$var reg 1 O ID_regwrite_o $end
$var reg 5 j" ID_rs1_add_o [4:0] $end
$var reg 32 k" ID_rs1_data_o [31:0] $end
$var reg 5 l" ID_rs2_add_o [4:0] $end
$var reg 32 m" ID_rs2_data_o [31:0] $end
$var reg 2 n" ID_sel_to_reg_o [1:0] $end
$var reg 32 o" rs1_data_temp [31:0] $end
$var reg 32 p" rs2_data_temp [31:0] $end
$scope module decode $end
$var wire 1 D" EX_branch_i $end
$var wire 1 E" EX_jump_i $end
$var wire 1 G" EX_zero_i $end
$var wire 32 q" pc_i [31:0] $end
$var wire 32 r" instr_i [31:0] $end
$var reg 4 s" FUNCT3 [3:0] $end
$var reg 32 t" IMM_B [31:0] $end
$var reg 32 u" IMM_I [31:0] $end
$var reg 32 v" IMM_J [31:0] $end
$var reg 32 w" IMM_S [31:0] $end
$var reg 32 x" IMM_U [31:0] $end
$var reg 4 y" alu_op_o [3:0] $end
$var reg 2 z" alu_sel1_o [1:0] $end
$var reg 2 {" alu_sel2_o [1:0] $end
$var reg 1 [" branch_o $end
$var reg 4 |" funct7 [3:0] $end
$var reg 32 }" imm_o [31:0] $end
$var reg 1 Y" jump_o $end
$var reg 4 ~" mem_op_o [3:0] $end
$var reg 1 W" mem_rd_en_o $end
$var reg 1 V" mem_wr_en_o $end
$var reg 7 !# opcode [6:0] $end
$var reg 1 U" pc_sel_o $end
$var reg 5 "# rd_add_o [4:0] $end
$var reg 1 P" reg_write_o $end
$var reg 5 ## rs1_add_o [4:0] $end
$var reg 32 $# rs1_data_o [31:0] $end
$var reg 5 %# rs2_add_o [4:0] $end
$var reg 32 &# rs2_data_o [31:0] $end
$var reg 2 '# sel_to_reg_o [1:0] $end
$upscope $end
$scope module reg_file $end
$var wire 5 (# address_1 [4:0] $end
$var wire 5 )# address_2 [4:0] $end
$var wire 1 * clk $end
$var wire 32 *# read_data_1 [31:0] $end
$var wire 32 +# read_data_2 [31:0] $end
$var wire 32 ,# read_data_3 [31:0] $end
$var wire 1 + rst_n $end
$var wire 1 < reg_write $end
$var wire 32 -# data_write [31:0] $end
$var wire 5 .# address_3 [4:0] $end
$upscope $end
$upscope $end
$scope module if_stage $end
$var wire 32 /# IF_instr_i [31:0] $end
$var wire 32 0# IMEM_data_i [31:0] $end
$var wire 32 1# boot_add [31:0] $end
$var wire 1 * clk $end
$var wire 1 I flush $end
$var wire 32 2# pc_dest [31:0] $end
$var wire 1 Q pc_sel $end
$var wire 1 + rst_n $end
$var wire 1 7 stall $end
$var reg 32 3# IF_instr_o [31:0] $end
$var reg 32 4# IF_pc_o [31:0] $end
$var reg 32 5# IMEM_add_o [31:0] $end
$var reg 32 6# pc_next [31:0] $end
$upscope $end
$scope module mem_stage $end
$var wire 32 7# DMEM_data_i [31:0] $end
$var wire 1 j MEM_RD_mem_i $end
$var wire 1 i MEM_WR_mem_i $end
$var wire 32 8# MEM_alu_result_i [31:0] $end
$var wire 32 9# MEM_imm_i [31:0] $end
$var wire 4 :# MEM_mem_op_i [3:0] $end
$var wire 32 ;# MEM_pc_i [31:0] $end
$var wire 5 <# MEM_rd_add_i [4:0] $end
$var wire 1 a MEM_regwrite_i $end
$var wire 32 =# MEM_rs2_data_i [31:0] $end
$var wire 2 ># MEM_sel_to_reg_i [1:0] $end
$var wire 1 * clk $end
$var wire 1 9 forward $end
$var wire 1 + rst_n $end
$var wire 32 ?# WB_data_i [31:0] $end
$var reg 32 @# DMEM_add_o [31:0] $end
$var reg 4 A# DMEM_byte_mark_o [3:0] $end
$var reg 32 B# DMEM_data_write_o [31:0] $end
$var reg 1 & DMEM_rst_o $end
$var reg 1 F MEM_RD_mem_o $end
$var reg 1 E MEM_WR_mem_o $end
$var reg 32 C# MEM_alu_result_o [31:0] $end
$var reg 32 D# MEM_data_o [31:0] $end
$var reg 32 E# MEM_imm_o [31:0] $end
$var reg 32 F# MEM_pc_o [31:0] $end
$var reg 5 G# MEM_rd_add_o [4:0] $end
$var reg 1 @ MEM_regwrite_o $end
$var reg 2 H# MEM_sel_to_reg_o [1:0] $end
$var reg 2 I# byte_addr [1:0] $end
$var reg 4 J# byte_mark [3:0] $end
$var reg 32 K# data_write [31:0] $end
$var reg 4 L# mem_op [3:0] $end
$upscope $end
$scope module wb_stage $end
$var wire 32 M# DMEM_data_i [31:0] $end
$var wire 32 N# WB_alu_result_i [31:0] $end
$var wire 32 O# WB_imm_i [31:0] $end
$var wire 32 P# WB_pc_i [31:0] $end
$var wire 5 Q# WB_rd_add_i [4:0] $end
$var wire 1 @ WB_regwrite_i $end
$var wire 2 R# WB_sel_to_reg_i [1:0] $end
$var wire 1 * clk $end
$var wire 1 + rst_n $end
$var reg 32 S# WB_data_write_reg_o [31:0] $end
$var reg 5 T# WB_rd_add_o [4:0] $end
$var reg 1 < WB_regwrite_o $end
$var reg 32 U# pc [31:0] $end
$upscope $end
$upscope $end
$upscope $end
$enddefinitions $end
#0
$dumpvars
bx U#
bx T#
bx000000000000 S#
bx R#
bx Q#
bx P#
bx O#
bx N#
bz M#
bx L#
bx K#
bx J#
bx I#
bx H#
bx G#
bx F#
bx E#
bx D#
bx C#
bx B#
bx A#
bx @#
bx000000000000 ?#
bx >#
bx =#
bx <#
bx ;#
bx :#
bx 9#
bx 8#
bx 7#
bx 6#
bx 5#
bx 4#
bx 3#
bx 2#
b0 1#
bx 0#
bz /#
bx .#
bx000000000000 -#
bx ,#
bx +#
bx *#
bx )#
bx (#
bx '#
bx &#
bx %#
bx $#
bx ##
bx "#
bx !#
bx ~"
bx }"
bx |"
bx {"
bx z"
bx y"
bx x"
bx w"
bx v"
bx u"
bx t"
bx s"
bx r"
bz q"
bx p"
bx o"
bx n"
bx m"
bx l"
bx k"
bx j"
bx i"
bx h"
bx g"
bx f"
bx e"
bx d"
bx c"
bx b"
bx a"
bx000000000000 `"
bx _"
bx ^"
bx ]"
bx \"
x["
bx Z"
xY"
bx X"
xW"
xV"
xU"
bx T"
bx S"
bx R"
bx Q"
xP"
bx O"
bx N"
bx M"
bx L"
bx K"
bz J"
b0x I"
b0x H"
zG"
bx F"
zE"
zD"
bx C"
bx B"
bx A"
bx @"
bx ?"
bx >"
bx ="
bx <"
bx ;"
bx :"
bx 9"
bx 8"
bx 7"
bx 6"
bx 5"
bx 4"
bx 3"
bx 2"
bx 1"
bx 0"
bx /"
bx ."
bx -"
bx ,"
bx +"
bx *"
bx )"
bx ("
bx '"
bx000000000000 &"
bx %"
bx $"
bx #"
x""
bx !"
bx ~
bx }
bx |
bx {
bx z
xy
xx
bx w
bx v
bx u
bx t
bx s
bx r
bx q
bx p
bx o
bx n
bx m
bx l
bx k
xj
xi
bx h
xg
bx f
bx e
bx d
bx c
bx b
xa
bx `
bx _
bx ^
bx ]
x\
x[
xZ
bx Y
bx X
bx W
xV
bx U
xT
bx S
bx R
xQ
bx P
xO
bx N
bx M
bx L
bx K
bx J
xI
bx H
bx G
xF
xE
bx D
bx C
bx B
bx A
x@
bx ?
bx000000000000 >
bx =
x<
bx ;
bx :
x9
x8
x7
bz 6
b0 5
bz 4
bx 3
bx 2
bx 1
bx 0
bx /
bz .
bx -
bx ,
x+
x*
bx )
bx (
bx '
x&
bx %
bx $
bz #
z"
z!
$end
#5
b100000 ,
#10
b100000 -
#20
1P"
0I
b0 I"
b0 H"
b0 #"
b0 $"
b100 6#
0g
0x
b100 ="
b100 ?"
b0 J#
b0 l
b0 B#
b0 m
b0 A#
09
b0 :
b0 {
b0 !"
18
b0 ;
b0 z
b0 ~
b0 U#
0<
b0 Q"
b0 ,#
b0 =
b0 _"
b0 .#
b0 T#
b0 K#
b100 >
b100 &"
b100 `"
b100 -#
b100 ?#
b100 S#
b0 $
b0 /
b0 k
b0 D#
b0 G
b0 a"
b0 4#
b0 '
b0 n
b0 5#
b0 U
b0 1"
b0 f"
b0 L
b0 r
b0 +"
b0 l"
b0 N
b0 s
b0 -"
b0 j"
b0 P
b0 t
b0 ."
b0 i"
0Q
b0 S
b0 0"
b0 g"
0T
b0 J
b0 '"
b0 n"
0O
0[
0Z
0V
b0 Y
b0 2"
b0 A"
b0 c"
b0 W
b0 ("
b0 e"
b0 X
b0 )"
b0 d"
b0 R
b0 /"
b0 h"
b0 ^
b0 ;"
b0 =#
b0 c
b0 6"
b0 2#
0\
b0 f
b0 4"
b0 9#
b0 h
b0 }
b0 3"
b0 C"
b0 8#
b0 `
b0 v
b0 9"
b0 _
b0 u
b0 :"
0a
b0 b
b0 w
b0 8"
b0 F"
b0 <#
b0 ]
b0 <"
b0 >#
b0 e
b0 5"
b0 :#
0i
0j
b0 C
b0 E#
b0 O#
b0 B
b0 F#
b0 P#
0E
0F
b0 A
b0 p
b0 G#
b0 Q#
0@
b0 D
b0 C#
b0 N#
b0 ?
b0 H#
b0 R#
b0 I#
b0 L#
0y
b0 p"
b0 o"
b0 %
b0 1
b0 2
b0 7#
0""
b1000 %"
b1000 B"
b100 >"
b100 @"
b0 K
b0 *"
b0 m"
b0 M
b0 ,"
b0 k"
07
b110011 |
b11000000000000100 v"
b10000011000000000000000 x"
b10 t"
b10 w"
b100 u"
b0 |"
b0 s"
b110011 !#
b10 X"
b10 ~"
0U"
0["
0Y"
b1 K"
b1 '#
0V"
0W"
b0 ^"
b0 y"
b10 \"
b10 {"
b11 ]"
b11 z"
b0 Z"
b0 }"
b0 R"
b0 +#
b100 M"
b100 %#
b100 )#
b0 S"
b0 *#
b11 O"
b11 ##
b11 (#
b10 T"
b10 "#
1&
b0 (
b0 0
b0 o
b0 @#
b10000011000000100110011 H
b10000011000000100110011 q
b10000011000000100110011 b"
b10000011000000100110011 r"
b10000011000000100110011 3#
1*
0+
b10000011000000100110011 )
b10000011000000100110011 3
b10000011000000100110011 0#
#25
0&
0*
1+
#30
b101000000000000110 v"
b11000101000000000000000 x"
b100 t"
b100 w"
b110 u"
b1 K"
b1 '#
b10 \"
b10 {"
b11 ]"
b11 z"
b110 M"
b110 %#
b110 )#
b101 O"
b101 ##
b101 (#
b100 T"
b100 "#
bx >
bx &"
bx `"
bx -#
bx ?#
bx S#
b0 %"
b0 B"
b11000101000001000110011 H
b11000101000001000110011 q
b11000101000001000110011 b"
b11000101000001000110011 r"
b11000101000001000110011 3#
bx U#
b0 >"
b0 @"
b0 ="
b0 ?"
b1000 (
b1000 0
b1000 o
b1000 @#
b10 #"
b11 $"
18
b1000 6#
b11000101000001000110011 )
b11000101000001000110011 3
b11000101000001000110011 0#
bx B
bx F#
bx P#
bx c
bx 6"
bx 2#
b1000 h
b1000 }
b1000 3"
b1000 C"
b1000 8#
b0 d
b0 7"
b0 ;#
b10 S
b10 0"
b10 g"
b1 J
b1 '"
b1 n"
1O
b10 W
b10 ("
b10 e"
b11 X
b11 )"
b11 d"
b100 L
b100 r
b100 +"
b100 l"
b11 N
b11 s
b11 -"
b11 j"
b10 P
b10 t
b10 ."
b10 i"
b100 '
b100 n
b100 5#
1*
#35
0*
#40
b101 ^"
b101 y"
b110001100000000110 v"
b11100110001000000000000 x"
b100000000100 t"
b101 w"
b111 u"
b1 s"
b1 K"
b1 '#
b10 \"
b10 {"
b11 ]"
b11 z"
b111 M"
b111 %#
b111 )#
b110 O"
b110 ##
b110 (#
b101 T"
b101 "#
b11100110001001010110011 H
b11100110001001010110011 q
b11100110001001010110011 b"
b11100110001001010110011 r"
b11100110001001010110011 3#
b100 >
b100 &"
b100 `"
b100 -#
b100 ?#
b100 S#
b11100110001001010110011 )
b11100110001001010110011 3
b11100110001001010110011 0#
b1100 6#
b0 (
b0 0
b0 o
b0 @#
18
b0 U#
b100 G
b100 a"
b100 4#
b1000 '
b1000 n
b1000 5#
b110 L
b110 r
b110 +"
b110 l"
b101 N
b101 s
b101 -"
b101 j"
b100 P
b100 t
b100 ."
b100 i"
b0 c
b0 6"
b0 2#
b0 h
b0 }
b0 3"
b0 C"
b0 8#
b100 _
b100 u
b100 :"
b10 b
b10 w
b10 8"
b10 F"
b10 <#
1a
b1 ]
b1 <"
b1 >#
b10 e
b10 5"
b10 :#
b0 B
b0 F#
b0 P#
b1000 D
b1000 C#
b1000 N#
1*
#45
0*
#50
b11000000000000100 v"
b10000011000000000000000 x"
b10 t"
b10 w"
b100 u"
b0 s"
b1 K"
b1 '#
b0 ^"
b0 y"
b10 \"
b10 {"
b11 ]"
b11 z"
b100 M"
b100 %#
b100 )#
b11 O"
b11 ##
b11 (#
b10 T"
b10 "#
b10000011000000100110011 H
b10000011000000100110011 q
b10000011000000100110011 b"
b10000011000000100110011 r"
b10000011000000100110011 3#
1<
b10 =
b10 _"
b10 .#
b10 T#
b0 >
b0 &"
b0 `"
b0 -#
b0 ?#
b0 S#
18
b10000 6#
b10000011000000100110011 )
b10000011000000100110011 3
b10000011000000100110011 0#
b10 L#
b10 A
b10 p
b10 G#
b10 Q#
1@
b0 D
b0 C#
b0 N#
b1 ?
b1 H#
b1 R#
b110 _
b110 u
b110 :"
b100 b
b100 w
b100 8"
b100 F"
b100 <#
b101 Y
b101 2"
b101 A"
b101 c"
b100 R
b100 /"
b100 h"
b111 L
b111 r
b111 +"
b111 l"
b110 N
b110 s
b110 -"
b110 j"
b101 P
b101 t
b101 ."
b101 i"
b1000 G
b1000 a"
b1000 4#
b1100 '
b1100 n
b1100 5#
1*
#55
0*
#60
b101000000000000110 v"
b11000101000000000000000 x"
b100 t"
b100 w"
b110 u"
b1 K"
b1 '#
b10 \"
b10 {"
b11 ]"
b11 z"
b110 M"
b110 %#
b110 )#
b101 O"
b101 ##
b101 (#
b100 T"
b100 "#
b11000101000001000110011 H
b11000101000001000110011 q
b11000101000001000110011 b"
b11000101000001000110011 r"
b11000101000001000110011 3#
b1 I"
b10100 6#
b11000101000001000110011 )
b11000101000001000110011 3
b11000101000001000110011 0#
18
b100 =
b100 _"
b100 .#
b100 T#
b1100 G
b1100 a"
b1100 4#
b10000 '
b10000 n
b10000 5#
b100 L
b100 r
b100 +"
b100 l"
b11 N
b11 s
b11 -"
b11 j"
b10 P
b10 t
b10 ."
b10 i"
b0 Y
b0 2"
b0 A"
b0 c"
b1000 R
b1000 /"
b1000 h"
b100 d
b100 7"
b100 ;#
b111 _
b111 u
b111 :"
b101 b
b101 w
b101 8"
b101 F"
b101 <#
b100 A
b100 p
b100 G#
b100 Q#
1*
#65
0*
#70
1W"
b1000 Z"
b1000 }"
b11 |
b11011000000001000 v"
b100000011011000000000000 x"
b1000 u"
b11 s"
b11 !#
b10 K"
b10 '#
b11 \"
b11 {"
b11 ]"
b11 z"
b0 M"
b0 %#
b0 )#
b11 O"
b11 ##
b11 (#
b1 H"
b100000011011001000000011 H
b100000011011001000000011 q
b100000011011001000000011 b"
b100000011011001000000011 r"
b100000011011001000000011 3#
b100 U#
b101 =
b101 _"
b101 .#
b101 T#
b0 I"
b11000 6#
b100000011011001000000011 )
b100000011011001000000011 3
b100000011011001000000011 0#
b100 B
b100 F#
b100 P#
b101 A
b101 p
b101 G#
b101 Q#
b100 c
b100 6"
b100 2#
b1000 d
b1000 7"
b1000 ;#
b100 _
b100 u
b100 :"
b10 b
b10 w
b10 8"
b10 F"
b10 <#
b1100 R
b1100 /"
b1100 h"
b110 L
b110 r
b110 +"
b110 l"
b101 N
b101 s
b101 -"
b101 j"
b100 P
b100 t
b100 ."
b100 i"
b10000 G
b10000 a"
b10000 4#
b10100 '
b10100 n
b10100 5#
1*
#75
0*
#80
b11000000000000100 v"
b10000011000000000000000 x"
b10 t"
b10 w"
b100 u"
b0 s"
b110011 !#
b110011 |
b1 K"
b1 '#
0W"
b10 \"
b10 {"
b11 ]"
b11 z"
b0 Z"
b0 }"
b100 M"
b100 %#
b100 )#
b10 T"
b10 "#
b10000011000000100110011 H
b10000011000000100110011 q
b10000011000000100110011 b"
b10000011000000100110011 r"
b10000011000000100110011 3#
b1000 %"
b1000 B"
b10000011000000100110011 )
b10000011000000100110011 3
b10000011000000100110011 0#
b1000 >"
b1000 @"
b0 H"
b11 #"
b11100 6#
18
b1000 U#
b10 =
b10 _"
b10 .#
b10 T#
b10100 G
b10100 a"
b10100 4#
b11000 '
b11000 n
b11000 5#
b1000 U
b1000 1"
b1000 f"
b0 L
b0 r
b0 +"
b0 l"
b11 N
b11 s
b11 -"
b11 j"
b10 J
b10 '"
b10 n"
1Z
b11 W
b11 ("
b11 e"
b10000 R
b10000 /"
b10000 h"
b1000 c
b1000 6"
b1000 2#
b1100 d
b1100 7"
b1100 ;#
b110 _
b110 u
b110 :"
b100 b
b100 w
b100 8"
b100 F"
b100 <#
b1000 B
b1000 F#
b1000 P#
b10 A
b10 p
b10 G#
b10 Q#
1*
#85
0*
#90
b101000000000000110 v"
b11000101000000000000000 x"
b100 t"
b100 w"
b110 u"
b1 K"
b1 '#
b10 \"
b10 {"
b11 ]"
b11 z"
b110 M"
b110 %#
b110 )#
b101 O"
b101 ##
b101 (#
b100 T"
b100 "#
b0 $"
b1 I"
b1000 %"
b1000 B"
b11000101000001000110011 H
b11000101000001000110011 q
b11000101000001000110011 b"
b11000101000001000110011 r"
b11000101000001000110011 3#
08
b1100 U#
b100 =
b100 _"
b100 .#
b100 T#
b1000 (
b1000 0
b1000 o
b1000 @#
b1 #"
b1000 >"
b1000 @"
b1 :
b1 {
b1 !"
b100000 6#
b11000101000001000110011 )
b11000101000001000110011 3
b11000101000001000110011 0#
b1100 B
b1100 F#
b1100 P#
b100 A
b100 p
b100 G#
b100 Q#
b1100 c
b1100 6"
b1100 2#
b1000 h
b1000 }
b1000 3"
b1000 C"
b1000 8#
b10000 d
b10000 7"
b10000 ;#
b0 _
b0 u
b0 :"
b10 ]
b10 <"
b10 >#
1i
b1 J
b1 '"
b1 n"
0Z
b10 W
b10 ("
b10 e"
b10100 R
b10100 /"
b10100 h"
b0 U
b0 1"
b0 f"
b100 L
b100 r
b100 +"
b100 l"
b10 P
b10 t
b10 ."
b10 i"
b11000 G
b11000 a"
b11000 4#
b11100 '
b11100 n
b11100 5#
1*
#95
0*
#100
b11000000000000100 v"
b10000011000000000000000 x"
b10 t"
b10 w"
b100 u"
b1 K"
b1 '#
b10 \"
b10 {"
b11 ]"
b11 z"
b100 M"
b100 %#
b100 )#
b11 O"
b11 ##
b11 (#
b10 T"
b10 "#
b0 >"
b0 @"
b10000011000000100110011 H
b10000011000000100110011 q
b10000011000000100110011 b"
b10000011000000100110011 r"
b10000011000000100110011 3#
b0 %"
b0 B"
b1000 K#
b11 $"
b10 #"
b10000011000000100110011 )
b10000011000000100110011 3
b10000011000000100110011 0#
b0 I"
b0 ="
b0 ?"
b100100 6#
19
18
b0 :
b0 {
b0 !"
b10000 U#
bz >
bz &"
bz `"
bz -#
bz ?#
bz S#
b11100 G
b11100 a"
b11100 4#
b100000 '
b100000 n
b100000 5#
b110 L
b110 r
b110 +"
b110 l"
b101 N
b101 s
b101 -"
b101 j"
b100 P
b100 t
b100 ."
b100 i"
b11000 R
b11000 /"
b11000 h"
b10000 c
b10000 6"
b10000 2#
b10100 d
b10100 7"
b10100 ;#
b100 _
b100 u
b100 :"
b10 b
b10 w
b10 8"
b10 F"
b10 <#
b1 ]
b1 <"
b1 >#
0i
b10000 B
b10000 F#
b10000 P#
1E
b1000 D
b1000 C#
b1000 N#
b10 ?
b10 H#
b10 R#
1*
#105
0*
