run/cpu.VCD
$date
	Sat Sep  7 23:58:47 2024
$end
$version
	Icarus Verilog
$end
$timescale
	1s
$end
$scope module testbench $end
$var wire 32 ! X_10 [31:0] $end
$var wire 32 " X_4 [31:0] $end
$var wire 32 # X_5 [31:0] $end
$var wire 32 $ instr [31:0] $end
$var wire 32 % reg_file_2 [31:0] $end
$var wire 4 & byte_mark [3:0] $end
$var wire 1 ' WR $end
$var wire 1 ( RD $end
$var wire 32 ) D_out [31:0] $end
$var wire 32 * D_in [31:0] $end
$var wire 1 + DMEM_rst $end
$var wire 32 , A_IMEM [31:0] $end
$var wire 32 - A_DMEM [31:0] $end
$var reg 32 . Instr_in [31:0] $end
$var reg 1 / clk $end
$var reg 1 0 rst_n $end
$var integer 32 1 i [31:0] $end
$var integer 32 2 j [31:0] $end
$var integer 32 3 k [31:0] $end
$scope module ram $end
$var wire 1 / clk $end
$var wire 1 0 rst_n $end
$var wire 32 4 data_in [31:0] $end
$var wire 4 5 byte_en [3:0] $end
$var wire 32 6 addr [31:0] $end
$var wire 1 ' WR $end
$var wire 1 ( RD $end
$var reg 32 7 data_out [31:0] $end
$upscope $end
$scope module top $end
$var wire 32 8 D_in [31:0] $end
$var wire 32 9 Instr_in [31:0] $end
$var wire 1 ( RD $end
$var wire 1 ' WR $end
$var wire 32 : boot_add [31:0] $end
$var wire 4 ; byte_mark [3:0] $end
$var wire 1 / clk $end
$var wire 1 < pc_sel $end
$var wire 1 0 rst_n $end
$var wire 1 = stall $end
$var wire 1 > hazard $end
$var wire 1 ? forward_dmem $end
$var wire 2 @ forward_B [1:0] $end
$var wire 2 A forward_A [1:0] $end
$var wire 1 B WB_regwrite $end
$var wire 5 C WB_rd_add [4:0] $end
$var wire 32 D WB_data_write_reg [31:0] $end
$var wire 2 E MEM_sel_to_reg [1:0] $end
$var wire 1 F MEM_regwrite $end
$var wire 5 G MEM_rd_add [4:0] $end
$var wire 32 H MEM_pc [31:0] $end
$var wire 32 I MEM_imm [31:0] $end
$var wire 32 J MEM_alu_result [31:0] $end
$var wire 1 K MEM_WR_mem $end
$var wire 1 L MEM_RD_mem $end
$var wire 32 M IF_pc [31:0] $end
$var wire 32 N IF_instr [31:0] $end
$var wire 1 O IF_ID_flush $end
$var wire 2 P ID_sel_to_reg [1:0] $end
$var wire 32 Q ID_rs2_data [31:0] $end
$var wire 5 R ID_rs2_add [4:0] $end
$var wire 32 S ID_rs1_data [31:0] $end
$var wire 5 T ID_rs1_add [4:0] $end
$var wire 1 U ID_regwrite $end
$var wire 5 V ID_rd_add [4:0] $end
$var wire 1 W ID_pc_sel $end
$var wire 32 X ID_pc [31:0] $end
$var wire 4 Y ID_mem_op [3:0] $end
$var wire 1 Z ID_jump $end
$var wire 32 [ ID_imm [31:0] $end
$var wire 1 \ ID_branch $end
$var wire 2 ] ID_alu_sel2 [1:0] $end
$var wire 2 ^ ID_alu_sel1 [1:0] $end
$var wire 4 _ ID_alu_op [3:0] $end
$var wire 1 ` ID_WR $end
$var wire 1 a ID_RD $end
$var wire 1 b EX_zero $end
$var wire 2 c EX_sel_to_reg [1:0] $end
$var wire 32 d EX_rs2_data [31:0] $end
$var wire 5 e EX_rs2_add [4:0] $end
$var wire 5 f EX_rs1_add [4:0] $end
$var wire 1 g EX_regwrite $end
$var wire 5 h EX_rd_add [4:0] $end
$var wire 32 i EX_pc_dest [31:0] $end
$var wire 32 j EX_pc [31:0] $end
$var wire 4 k EX_mem_op [3:0] $end
$var wire 1 l EX_jump $end
$var wire 32 m EX_imm [31:0] $end
$var wire 1 n EX_flush $end
$var wire 1 o EX_branch $end
$var wire 32 p EX_alu_result [31:0] $end
$var wire 1 q EX_WR $end
$var wire 1 r EX_RD $end
$var wire 32 s D_out [31:0] $end
$var wire 1 + DMEM_rst $end
$var wire 32 t DMEM_data_o [31:0] $end
$var wire 4 u DMEM_byte_mark [3:0] $end
$var wire 32 v A_IMEM [31:0] $end
$var wire 32 w A_DMEM [31:0] $end
$scope module control_hazard $end
$var wire 1 O IF_ID_flush_o $end
$var wire 1 / clk $end
$var wire 1 0 rst_n $end
$var wire 1 b zero $end
$var wire 1 F MEM_regwrite_i $end
$var wire 5 x MEM_rd_add_i [4:0] $end
$var wire 32 y IF_instr_i [31:0] $end
$var wire 5 z ID_rs2_add_i [4:0] $end
$var wire 5 { ID_rs1_add_i [4:0] $end
$var wire 5 | ID_rd_add_i [4:0] $end
$var wire 1 Z ID_jump $end
$var wire 1 a ID_RD_mem_i $end
$var wire 5 } EX_rs2_add_i [4:0] $end
$var wire 5 ~ EX_rs1_add_i [4:0] $end
$var wire 1 g EX_regwrite_i $end
$var wire 5 !" EX_rd_add_i [4:0] $end
$var reg 1 n EX_flush_o $end
$var reg 1 "" IF_ID_flush1 $end
$var reg 1 #" IF_ID_flush2 $end
$var reg 2 $" forward_A_o [1:0] $end
$var reg 2 %" forward_B_o [1:0] $end
$var reg 1 ? forward_dmem $end
$var reg 1 > hazard $end
$var reg 7 &" opcode [6:0] $end
$var reg 1 = stall_o $end
$upscope $end
$scope module ex_stage $end
$var wire 32 '" EX_data_i [31:0] $end
$var wire 1 / clk $end
$var wire 1 n flush $end
$var wire 2 (" forwardA [1:0] $end
$var wire 2 )" forwardB [1:0] $end
$var wire 1 > hazard $end
$var wire 1 0 rst_n $end
$var wire 1 *" zero $end
$var wire 2 +" sel_to_alu_B [1:0] $end
$var wire 2 ," sel_to_alu_A [1:0] $end
$var wire 32 -" alu_result [31:0] $end
$var wire 32 ." WB_data_i [31:0] $end
$var wire 2 /" EX_sel_to_reg_i [1:0] $end
$var wire 2 0" EX_sel_alu2_i [1:0] $end
$var wire 2 1" EX_sel_alu1_i [1:0] $end
$var wire 32 2" EX_rs2_data_i [31:0] $end
$var wire 5 3" EX_rs2_add_i [4:0] $end
$var wire 32 4" EX_rs1_data_i [31:0] $end
$var wire 5 5" EX_rs1_add_i [4:0] $end
$var wire 1 U EX_regwrite_i $end
$var wire 5 6" EX_rd_add_i [4:0] $end
$var wire 32 7" EX_pc_i [31:0] $end
$var wire 32 8" EX_pc_dest [31:0] $end
$var wire 4 9" EX_mem_op_i [3:0] $end
$var wire 1 Z EX_jump_i $end
$var wire 32 :" EX_imm_i [31:0] $end
$var wire 1 \ EX_branch_i $end
$var wire 4 ;" EX_alu_op_i [3:0] $end
$var wire 1 ` EX_WR_mem_i $end
$var wire 1 a EX_RD_mem_i $end
$var reg 1 r EX_RD_mem_o $end
$var reg 1 q EX_WR_mem_o $end
$var reg 32 <" EX_alu_result_o [31:0] $end
$var reg 1 o EX_branch_o $end
$var reg 32 =" EX_imm_o [31:0] $end
$var reg 1 l EX_jump_o $end
$var reg 4 >" EX_mem_op_o [3:0] $end
$var reg 32 ?" EX_pc_o [31:0] $end
$var reg 5 @" EX_rd_add_o [4:0] $end
$var reg 1 g EX_regwrite_o $end
$var reg 5 A" EX_rs1_add_o [4:0] $end
$var reg 5 B" EX_rs2_add_o [4:0] $end
$var reg 32 C" EX_rs2_data_o [31:0] $end
$var reg 2 D" EX_sel_to_reg_o [1:0] $end
$var reg 1 b EX_zero_o $end
$var reg 32 E" op_a_alu [31:0] $end
$var reg 32 F" op_b_alu [31:0] $end
$scope module alu $end
$var wire 32 G" alu_op1_i [31:0] $end
$var wire 32 H" alu_op2_i [31:0] $end
$var wire 4 I" alu_ctrl_i [3:0] $end
$var reg 32 J" alu_result_o [31:0] $end
$var reg 1 *" zero_o $end
$upscope $end
$upscope $end
$scope module id_stage $end
$var wire 32 K" EX_ALU_result_i [31:0] $end
$var wire 1 o EX_branch_i $end
$var wire 1 l EX_jump_i $end
$var wire 5 L" EX_rd_add_i [4:0] $end
$var wire 1 b EX_zero_i $end
$var wire 1 / clk $end
$var wire 1 O flush $end
$var wire 32 M" match_1 [31:0] $end
$var wire 32 N" match_2 [31:0] $end
$var wire 1 0 rst_n $end
$var wire 1 = stall $end
$var wire 2 O" sel_to_reg [1:0] $end
$var wire 5 P" rs2_add [4:0] $end
$var wire 5 Q" rs1_add [4:0] $end
$var wire 1 R" reg_write $end
$var wire 32 S" read_data_2 [31:0] $end
$var wire 32 T" read_data_1 [31:0] $end
$var wire 5 U" rd_add [4:0] $end
$var wire 1 V" pc_sel $end
$var wire 1 W" mem_wr_en $end
$var wire 1 X" mem_rd_en $end
$var wire 4 Y" mem_op [3:0] $end
$var wire 1 Z" jump $end
$var wire 32 [" imm [31:0] $end
$var wire 1 \" branch $end
$var wire 2 ]" alu_sel2 [1:0] $end
$var wire 2 ^" alu_sel1 [1:0] $end
$var wire 4 _" alu_op [3:0] $end
$var wire 1 B WB_regwrite_i $end
$var wire 5 `" WB_rd_add_i [4:0] $end
$var wire 32 a" WB_data_i [31:0] $end
$var wire 32 b" ID_pc_i [31:0] $end
$var wire 32 c" ID_instr_i [31:0] $end
$var reg 1 a ID_RD_en_o $end
$var reg 1 ` ID_WR_en_o $end
$var reg 4 d" ID_alu_op_o [3:0] $end
$var reg 2 e" ID_alu_sel1_o [1:0] $end
$var reg 2 f" ID_alu_sel2_o [1:0] $end
$var reg 1 \ ID_branch_o $end
$var reg 32 g" ID_imm_o [31:0] $end
$var reg 1 Z ID_jump_o $end
$var reg 4 h" ID_mem_op_o [3:0] $end
$var reg 32 i" ID_pc_o [31:0] $end
$var reg 1 W ID_pc_sel_o $end
$var reg 5 j" ID_rd_add_o [4:0] $end
$var reg 1 U ID_regwrite_o $end
$var reg 5 k" ID_rs1_add_o [4:0] $end
$var reg 32 l" ID_rs1_data_o [31:0] $end
$var reg 5 m" ID_rs2_add_o [4:0] $end
$var reg 32 n" ID_rs2_data_o [31:0] $end
$var reg 2 o" ID_sel_to_reg_o [1:0] $end
$var reg 32 p" rs1_data_temp [31:0] $end
$var reg 32 q" rs2_data_temp [31:0] $end
$scope module decode $end
$var wire 1 o EX_branch_i $end
$var wire 1 l EX_jump_i $end
$var wire 1 b EX_zero_i $end
$var wire 32 r" instr_i [31:0] $end
$var reg 3 s" FUNCT3 [2:0] $end
$var reg 32 t" IMM_B [31:0] $end
$var reg 32 u" IMM_I [31:0] $end
$var reg 32 v" IMM_J [31:0] $end
$var reg 32 w" IMM_S [31:0] $end
$var reg 32 x" IMM_U [31:0] $end
$var reg 4 y" alu_op_o [3:0] $end
$var reg 2 z" alu_sel1_o [1:0] $end
$var reg 2 {" alu_sel2_o [1:0] $end
$var reg 1 \" branch_o $end
$var reg 4 |" funct7 [3:0] $end
$var reg 32 }" imm_o [31:0] $end
$var reg 1 Z" jump_o $end
$var reg 4 ~" mem_op_o [3:0] $end
$var reg 1 X" mem_rd_en_o $end
$var reg 1 W" mem_wr_en_o $end
$var reg 7 !# opcode [6:0] $end
$var reg 1 V" pc_sel_o $end
$var reg 5 "# rd_add_o [4:0] $end
$var reg 1 R" reg_write_o $end
$var reg 5 ## rs1_add_o [4:0] $end
$var reg 5 $# rs2_add_o [4:0] $end
$var reg 2 %# sel_to_reg_o [1:0] $end
$upscope $end
$scope module reg_file $end
$var wire 5 &# address_1 [4:0] $end
$var wire 5 '# address_2 [4:0] $end
$var wire 1 / clk $end
$var wire 1 0 rst_n $end
$var wire 1 (# unused_reset $end
$var wire 1 B reg_write $end
$var wire 32 )# read_data_2 [31:0] $end
$var wire 32 *# read_data_1 [31:0] $end
$var wire 32 +# data_write [31:0] $end
$var wire 5 ,# address_3 [4:0] $end
$var integer 32 -# i [31:0] $end
$upscope $end
$upscope $end
$scope module if_stage $end
$var wire 32 .# IF_instr_i [31:0] $end
$var wire 32 /# IMEM_data_i [31:0] $end
$var wire 32 0# boot_add [31:0] $end
$var wire 1 / clk $end
$var wire 1 O flush $end
$var wire 32 1# pc_dest [31:0] $end
$var wire 1 < pc_sel $end
$var wire 1 0 rst_n $end
$var wire 1 = stall $end
$var reg 32 2# IF_instr_o [31:0] $end
$var reg 32 3# IF_pc_o [31:0] $end
$var reg 32 4# IMEM_add_o [31:0] $end
$var reg 32 5# pc_next [31:0] $end
$upscope $end
$scope module mem_stage $end
$var wire 32 6# DMEM_data_i [31:0] $end
$var wire 1 r MEM_RD_mem_i $end
$var wire 1 q MEM_WR_mem_i $end
$var wire 32 7# MEM_alu_result_i [31:0] $end
$var wire 32 8# MEM_imm_i [31:0] $end
$var wire 4 9# MEM_mem_op_i [3:0] $end
$var wire 32 :# MEM_pc_i [31:0] $end
$var wire 5 ;# MEM_rd_add_i [4:0] $end
$var wire 1 g MEM_regwrite_i $end
$var wire 32 <# MEM_rs2_data_i [31:0] $end
$var wire 2 =# MEM_sel_to_reg_i [1:0] $end
$var wire 1 / clk $end
$var wire 1 ? forward $end
$var wire 1 0 rst_n $end
$var wire 32 ># WB_data_i [31:0] $end
$var reg 32 ?# DMEM_add_o [31:0] $end
$var reg 4 @# DMEM_byte_mark_o [3:0] $end
$var reg 32 A# DMEM_data_write_o [31:0] $end
$var reg 1 + DMEM_rst_o $end
$var reg 1 L MEM_RD_mem_o $end
$var reg 1 K MEM_WR_mem_o $end
$var reg 32 B# MEM_alu_result_o [31:0] $end
$var reg 32 C# MEM_data_o [31:0] $end
$var reg 32 D# MEM_imm_o [31:0] $end
$var reg 32 E# MEM_pc_o [31:0] $end
$var reg 5 F# MEM_rd_add_o [4:0] $end
$var reg 1 F MEM_regwrite_o $end
$var reg 2 G# MEM_sel_to_reg_o [1:0] $end
$var reg 2 H# byte_addr [1:0] $end
$var reg 4 I# byte_mark [3:0] $end
$var reg 32 J# data_write [31:0] $end
$var reg 4 K# mem_op [3:0] $end
$upscope $end
$scope module wb_stage $end
$var wire 32 L# DMEM_data_i [31:0] $end
$var wire 32 M# WB_alu_result_i [31:0] $end
$var wire 32 N# WB_imm_i [31:0] $end
$var wire 32 O# WB_pc_i [31:0] $end
$var wire 5 P# WB_rd_add_i [4:0] $end
$var wire 1 F WB_regwrite_i $end
$var wire 2 Q# WB_sel_to_reg_i [1:0] $end
$var wire 1 / clk $end
$var wire 1 0 rst_n $end
$var reg 32 R# WB_data_write_reg_o [31:0] $end
$var reg 5 S# WB_rd_add_o [4:0] $end
$var reg 1 B WB_regwrite_o $end
$var reg 32 T# pc [31:0] $end
$upscope $end
$upscope $end
$upscope $end
$enddefinitions $end
#0
$dumpvars
bx T#
bx S#
bx R#
bx Q#
bx P#
bx O#
bx N#
bx M#
bx L#
bx K#
bx J#
bx I#
bx H#
bx G#
bx F#
bx E#
bx D#
bx C#
bx B#
bx A#
bx @#
bx ?#
bx >#
bx =#
bx <#
bx ;#
bx :#
bx 9#
bx 8#
bx 7#
bx 6#
bx 5#
bx 4#
bx 3#
bx 2#
bx 1#
b0 0#
bx /#
bx .#
b11111 -#
bx ,#
bx +#
bx *#
bx )#
x(#
bx '#
bx &#
bx %#
bx $#
bx ##
bx "#
bx !#
bx ~"
bx }"
bx |"
bx {"
bx z"
bx y"
bx x"
bx w"
bx v"
bx u"
bx t"
bx s"
bx r"
bx q"
bx p"
bx o"
bx n"
bx m"
bx l"
bx k"
bx j"
bx i"
bx h"
bx g"
bx f"
bx e"
bx d"
bx c"
bx b"
bx a"
bx `"
bx _"
bx ^"
bx ]"
x\"
bx ["
xZ"
bx Y"
xX"
xW"
xV"
bx U"
bx T"
bx S"
xR"
bx Q"
bx P"
bx O"
b0x N"
b0x M"
bx L"
bx K"
bx J"
bx I"
bx H"
bx G"
bx F"
bx E"
bx D"
bx C"
bx B"
bx A"
bx @"
bx ?"
bx >"
bx ="
bx <"
bx ;"
bx :"
bx 9"
bx 8"
bx 7"
bx 6"
bx 5"
bx 4"
bx 3"
bx 2"
bx 1"
bx 0"
bx /"
bx ."
bx -"
bx ,"
bx +"
x*"
bx )"
bx ("
bx '"
bx &"
bx %"
bx $"
x#"
x""
bx !"
bx ~
bx }
bx |
bx {
bx z
bx y
bx x
bx w
bx v
bx u
bx t
bx s
xr
xq
bx p
xo
xn
bx m
xl
bx k
bx j
bx i
bx h
xg
bx f
bx e
bx d
bx c
xb
xa
x`
bx _
bx ^
bx ]
x\
bx [
xZ
bx Y
bx X
xW
bx V
xU
bx T
bx S
bx R
bx Q
bx P
xO
bx N
bx M
xL
xK
bx J
bx I
bx H
bx G
xF
bx E
bx D
bx C
xB
bx A
bx @
x?
x>
x=
x<
bx ;
b0 :
bx 9
bx 8
bx 7
bx 6
bx 5
bx 4
bx 3
bx 2
bx 1
x0
x/
bx .
bx -
bx ,
x+
bx *
bx )
x(
x'
bx &
b0 %
bx $
b0 #
b0 "
b0 !
$end
#5
b100000000 3
b100 !
b100 #
b100 "
b100 %
b100000 1
#10
b100000 2
#20
b100 F"
b100 H"
b100 E"
b100 G"
b100 Q
b100 2"
b100 n"
b100 S
b100 4"
b100 l"
b100 S"
b100 )#
b100 T"
b100 *#
0O
b100 D
b100 ."
b100 a"
b100 +#
b100 >#
b100 R#
b0 N"
b0 M"
0*"
b1000 -"
b1000 J"
0<
0n
0""
b100 5#
b0 )
b0 4
b0 s
b0 A#
b0 &
b0 5
b0 ;
b0 u
b0 @#
0?
b0 @
b0 %"
b0 )"
b0 A
b0 $"
b0 ("
b0 T#
0B
b0 C
b0 `"
b0 ,#
b0 S#
b0 J#
b0 ,"
b0 +"
0=
b0 &"
b0 v"
b0 x"
b0 t"
b0 w"
b0 u"
b0 |"
b0 s"
b0 !#
0R"
b10 Y"
b10 ~"
0V"
0\"
0Z"
b0 O"
b0 %#
0W"
0X"
b0 _"
b0 y"
b0 ]"
b0 {"
b0 ^"
b0 z"
b0 ["
b0 }"
b0 P"
b0 $#
b0 '#
b0 Q"
b0 ##
b0 &#
b0 U"
b0 "#
b0 t
b0 C#
b0 L#
b0 M
b0 b"
b0 3#
b0 ,
b0 v
b0 4#
b0 [
b0 :"
b0 g"
b0 R
b0 z
b0 3"
b0 m"
b0 T
b0 {
b0 5"
b0 k"
b0 V
b0 |
b0 6"
b0 j"
0W
b0 Y
b0 9"
b0 h"
0Z
b0 P
b0 /"
b0 o"
0U
0a
0`
0\
b0 _
b0 ;"
b0 I"
b0 d"
b0 ]
b0 0"
b0 f"
b0 ^
b0 1"
b0 e"
b0 X
b0 7"
b0 i"
0l
0o
b0 d
b0 C"
b0 <#
0b
b0 i
b0 8"
b0 1#
b0 m
b0 ="
b0 8#
b0 p
b0 '"
b0 <"
b0 K"
b0 7#
b0 j
b0 ?"
b0 :#
b0 f
b0 ~
b0 A"
b0 e
b0 }
b0 B"
0g
b0 h
b0 !"
b0 @"
b0 L"
b0 ;#
b0 c
b0 D"
b0 =#
b0 k
b0 >"
b0 9#
0q
0r
b0 I#
b0 I
b0 D#
b0 N#
b0 H
b0 E#
b0 O#
0'
0K
0(
0L
b0 G
b0 x
b0 F#
b0 P#
0F
b0 J
b0 B#
b0 M#
b0 E
b0 G#
b0 Q#
b0 H#
b0 K#
0>
0#"
b0 $
b0 N
b0 y
b0 c"
b0 r"
b0 2#
b0 q"
b0 p"
b0 *
b0 7
b0 8
b0 6#
1+
b0 -
b0 6
b0 w
b0 ?#
1/
0(#
00
b10000011000000100110011 .
b10000011000000100110011 9
b10000011000000100110011 .#
b10000011000000100110011 /#
#25
0+
0/
1(#
10
#30
b10 ]"
b10 {"
b11 ^"
b11 z"
b1 O"
b1 %#
1R"
b100 J#
b1000 -
b1000 6
b1000 w
b1000 ?#
b1000 5#
b11100110000001010110011 .
b11100110000001010110011 9
b11100110000001010110011 .#
b11100110000001010110011 /#
b11000000000000100 v"
b10000011000000000000000 x"
b10 t"
b10 w"
b100 u"
b110011 !#
b110011 &"
b100 P"
b100 $#
b100 '#
b11 Q"
b11 ##
b11 &#
b10 U"
b10 "#
b100 q"
b100 p"
b100 d
b100 C"
b100 <#
b1000 p
b1000 '"
b1000 <"
b1000 K"
b1000 7#
b10 Y
b10 9"
b10 h"
b100 ,
b100 v
b100 4#
b10000011000000100110011 $
b10000011000000100110011 N
b10000011000000100110011 y
b10000011000000100110011 c"
b10000011000000100110011 r"
b10000011000000100110011 2#
1/
#35
0/
#40
b1100 5#
b101001001000010000110011 .
b101001001000010000110011 9
b101001001000010000110011 .#
b101001001000010000110011 /#
b10 +"
b11 ,"
b110000100000000110 v"
b11100110000000000000000 x"
b100000000100 t"
b101 w"
b111 u"
1R"
b1 O"
b1 %#
b10 ]"
b10 {"
b11 ^"
b11 z"
b111 P"
b111 $#
b111 '#
b110 Q"
b110 ##
b110 &#
b101 U"
b101 "#
b100 M
b100 b"
b100 3#
b1000 ,
b1000 v
b1000 4#
b100 R
b100 z
b100 3"
b100 m"
b11 T
b11 {
b11 5"
b11 k"
b10 V
b10 |
b10 6"
b10 j"
b1 P
b1 /"
b1 o"
1U
b10 ]
b10 0"
b10 f"
b11 ^
b11 1"
b11 e"
b10 k
b10 >"
b10 9#
b1000 J
b1000 B#
b1000 M#
b11100110000001010110011 $
b11100110000001010110011 N
b11100110000001010110011 y
b11100110000001010110011 c"
b11100110000001010110011 r"
b11100110000001010110011 2#
1/
#45
0/
#50
b10000 5#
b110101100000010110110011 .
b110101100000010110110011 9
b110101100000010110110011 .#
b110101100000010110110011 /#
b1001000000000001010 v"
b101001001000000000000000 x"
b1000 t"
b1000 w"
b1010 u"
1R"
b1 O"
b1 %#
b10 ]"
b10 {"
b11 ^"
b11 z"
b1010 P"
b1010 $#
b1010 '#
b1001 Q"
b1001 ##
b1001 &#
b1000 U"
b1000 "#
b10 K#
b11 f
b11 ~
b11 A"
b100 e
b100 }
b100 B"
b10 h
b10 !"
b10 @"
b10 L"
b10 ;#
1g
b1 c
b1 D"
b1 =#
b100 X
b100 7"
b100 i"
b111 R
b111 z
b111 3"
b111 m"
b110 T
b110 {
b110 5"
b110 k"
b101 V
b101 |
b101 6"
b101 j"
b1000 M
b1000 b"
b1000 3#
b1100 ,
b1100 v
b1100 4#
b101001001000010000110011 $
b101001001000010000110011 N
b101001001000010000110011 y
b101001001000010000110011 c"
b101001001000010000110011 r"
b101001001000010000110011 2#
1/
#55
0/
#60
b10000000101000001100010011 .
b10000000101000001100010011 9
b10000000101000001100010011 .#
b10000000101000001100010011 /#
b10100 5#
1B
b10 C
b10 `"
b10 ,#
b10 S#
b1000 D
b1000 ."
b1000 a"
b1000 +#
b1000 >#
b1000 R#
b1100000100000001100 v"
b110101100000000000000000 x"
b100000001010 t"
b1011 w"
b1101 u"
1R"
b1 O"
b1 %#
b10 ]"
b10 {"
b11 ^"
b11 z"
b1101 P"
b1101 $#
b1101 '#
b1100 Q"
b1100 ##
b1100 &#
b1011 U"
b1011 "#
b1100 M
b1100 b"
b1100 3#
b10000 ,
b10000 v
b10000 4#
b1010 R
b1010 z
b1010 3"
b1010 m"
b1001 T
b1001 {
b1001 5"
b1001 k"
b1000 V
b1000 |
b1000 6"
b1000 j"
b1000 X
b1000 7"
b1000 i"
b100 i
b100 8"
b100 1#
b100 j
b100 ?"
b100 :#
b110 f
b110 ~
b110 A"
b111 e
b111 }
b111 B"
b101 h
b101 !"
b101 @"
b101 L"
b101 ;#
b10 G
b10 x
b10 F#
b10 P#
1F
b1 E
b1 G#
b1 Q#
b110101100000010110110011 $
b110101100000010110110011 N
b110101100000010110110011 y
b110101100000010110110011 c"
b110101100000010110110011 r"
b110101100000010110110011 2#
1/
#65
0/
#70
b1100 -"
b1100 J"
b1000 E"
b1000 G"
b1000 S
b1000 4"
b1000 l"
b1000 T"
b1000 *#
b100000 ["
b100000 }"
b100 T#
b101 C
b101 `"
b101 ,#
b101 S#
b11000 5#
b101000100010100001100011 .
b101000100010100001100011 9
b101000100010100001100011 .#
b101000100010100001100011 /#
b101000000000100000 v"
b10000000101000000000000000 x"
b100110 t"
b100110 w"
b100000 u"
b10011 !#
b10011 &"
1R"
b1 O"
b1 %#
b11 ]"
b11 {"
b11 ^"
b11 z"
b0 P"
b0 $#
b0 '#
b101 Q"
b101 ##
b101 &#
b110 U"
b110 "#
b100 H
b100 E#
b100 O#
b101 G
b101 x
b101 F#
b101 P#
b1000 i
b1000 8"
b1000 1#
b1000 j
b1000 ?"
b1000 :#
b1001 f
b1001 ~
b1001 A"
b1010 e
b1010 }
b1010 B"
b1000 h
b1000 !"
b1000 @"
b1000 L"
b1000 ;#
b1100 X
b1100 7"
b1100 i"
b1101 R
b1101 z
b1101 3"
b1101 m"
b1100 T
b1100 {
b1100 5"
b1100 k"
b1011 V
b1011 |
b1011 6"
b1011 j"
b1000 %
b10000 M
b10000 b"
b10000 3#
b10100 ,
b10100 v
b10100 4#
b10000000101000001100010011 $
b10000000101000001100010011 N
b10000000101000001100010011 y
b10000000101000001100010011 c"
b10000000101000001100010011 r"
b10000000101000001100010011 2#
1/
#75
0/
#80
b100 E"
b100 G"
b100 S
b100 4"
b100 l"
b100 T"
b100 *#
b100100 -"
b100100 J"
b100000 F"
b100000 H"
0\"
b100001100010001001100011 .
b100001100010001001100011 9
b100001100010001001100011 .#
b100001100010001001100011 /#
b11 +"
b1100 -
b1100 6
b1100 w
b1100 ?#
b11100 5#
b1000 T#
b1000 C
b1000 `"
b1000 ,#
b1000 S#
b1100011 &"
b100010000000001010 v"
b101000100010000000000000 x"
b10000 t"
b10000 w"
b1010 u"
b10 s"
b1100011 !#
0R"
b0 O"
b0 %#
b0 ]"
b0 {"
b0 ^"
b0 z"
b10000 ["
b10000 }"
b1010 P"
b1010 $#
b1010 '#
b100 Q"
b100 ##
b100 &#
b0 U"
b0 "#
b1000 p"
b10100 M
b10100 b"
b10100 3#
b11000 ,
b11000 v
b11000 4#
b1000 #
b100000 [
b100000 :"
b100000 g"
b0 R
b0 z
b0 3"
b0 m"
b101 T
b101 {
b101 5"
b101 k"
b110 V
b110 |
b110 6"
b110 j"
b11 ]
b11 0"
b11 f"
b10000 X
b10000 7"
b10000 i"
b1100 p
b1100 '"
b1100 <"
b1100 K"
b1100 7#
b1100 i
b1100 8"
b1100 1#
b1100 j
b1100 ?"
b1100 :#
b1100 f
b1100 ~
b1100 A"
b1101 e
b1101 }
b1101 B"
b1011 h
b1011 !"
b1011 @"
b1011 L"
b1011 ;#
b1000 H
b1000 E#
b1000 O#
b1000 G
b1000 x
b1000 F#
b1000 P#
b101000100010100001100011 $
b101000100010100001100011 N
b101000100010100001100011 y
b101000100010100001100011 c"
b101000100010100001100011 r"
b101000100010100001100011 2#
1/
#85
0/
#90
b1000 Q
b1000 2"
b1000 n"
b1100 E"
b1100 G"
b11000 -"
b11000 J"
b1000 S"
b1000 )#
b1100 T#
b1011 C
b1011 `"
b1011 ,#
b1011 S#
b1100 D
b1100 ."
b1100 a"
b1100 +#
b1100 >#
b1100 R#
b100100 -
b100100 6
b100100 w
b100100 ?#
b0 +"
b0 ,"
b1100 F"
b1100 H"
b100000 5#
b10000011000000100110011 .
b10000011000000100110011 9
b10000011000000100110011 .#
b10000011000000100110011 /#
b1100010000000001000 v"
b100001100010000000000000 x"
b100 t"
b100 w"
b1000 u"
0\"
b100 ["
b100 }"
b1000 P"
b1000 $#
b1000 '#
b1100 Q"
b1100 ##
b1100 &#
b0 U"
b0 "#
b100 p"
b1100 H
b1100 E#
b1100 O#
b1011 G
b1011 x
b1011 F#
b1011 P#
b1100 J
b1100 B#
b1100 M#
b100000 m
b100000 ="
b100000 8#
b100100 p
b100100 '"
b100100 <"
b100100 K"
b100100 7#
b110000 i
b110000 8"
b110000 1#
b10000 j
b10000 ?"
b10000 :#
b101 f
b101 ~
b101 A"
b0 e
b0 }
b0 B"
b110 h
b110 !"
b110 @"
b110 L"
b110 ;#
b0 P
b0 /"
b0 o"
0U
b0 ]
b0 0"
b0 f"
b0 ^
b0 1"
b0 e"
b10100 X
b10100 7"
b10100 i"
b10000 [
b10000 :"
b10000 g"
b1010 R
b1010 z
b1010 3"
b1010 m"
b100 T
b100 {
b100 5"
b100 k"
b0 V
b0 |
b0 6"
b0 j"
b11000 M
b11000 b"
b11000 3#
b11100 ,
b11100 v
b11100 4#
b100001100010001001100011 $
b100001100010001001100011 N
b100001100010001001100011 y
b100001100010001001100011 c"
b100001100010001001100011 r"
b100001100010001001100011 2#
1/
#95
0/
